<svg width="1919" height="732" viewBox="0 0 1919 732" fill="none" xmlns="http://www.w3.org/2000/svg">
<g opacity="0.12" clip-path="url(#clip0)">
<path d="M236.935 334.456L375.115 246.275C392.023 235.463 412.727 235.452 429.937 246.244L478.358 277.61C505.77 277.594 540.471 277.575 560.592 277.564C573.131 277.556 581.585 272.488 586.83 264.046C553.284 241.449 530.517 196.566 530.492 144.581C530.457 69.9803 577.668 9.53023 635.698 9.49757C659.61 9.48411 681.777 19.936 699.573 37.1416C750.043 83.6967 735.186 114.423 792.947 162.662C853.626 213.262 873.44 181.858 934.119 232.458C936.744 234.819 939.37 236.843 941.704 239.205L1128.85 93.2728C1145.75 80.0984 1167.91 80.0859 1185.13 93.2411L1416.46 273.369C1420.54 272.016 1424.91 271.339 1429.29 271.336C1445.91 271.327 1473.03 271.311 1486.73 271.304C1500.44 271.296 1505.97 261.166 1505.97 247.326C1505.96 233.486 1505.94 188.253 1505.93 167.999L1505.93 167.662C1505.92 140.657 1523.69 118.705 1545.27 118.693C1567.14 118.681 1584.65 140.612 1584.66 167.617C1584.66 172.006 1584.08 176.394 1583.21 180.445C1592.83 180.44 1602.17 180.435 1608.58 180.431C1622.29 180.423 1627.82 170.293 1627.82 156.453C1627.81 143.626 1627.79 104.469 1627.78 82.8651C1627.49 80.8399 1627.49 79.1521 1627.49 77.1267C1627.47 50.1218 1644.96 28.1705 1666.83 28.1582C1688.7 28.1459 1706.21 50.0775 1706.22 77.0824C1706.23 96.661 1696.91 113.882 1683.5 121.653C1683.5 136.506 1683.51 150.008 1683.51 156.76C1683.52 170.6 1689.06 180.723 1702.77 180.716C1716.48 180.708 1723.18 180.704 1739.8 180.695C1749.72 180.689 1759.93 184.059 1766.64 193.845C1773.05 188.44 1780.63 185.06 1789.09 185.055C1810.67 185.043 1828.46 206.975 1828.48 233.98L1828.48 234.317C1828.49 254.233 1828.51 299.804 1828.52 313.644C1828.52 327.484 1834.07 337.608 1847.77 337.6C1861.48 337.592 1863.81 336.578 1880.43 336.569C1897.05 336.56 1914.84 339.25 1914.86 374.694L1914.92 505.668L1915.03 727.108L1915.03 728.121L-33.4873 728.88L-33.7562 167.178L236.935 334.456Z" fill="#99A392"/>
<path d="M1159.9 390.647C1174.19 390.639 1185.26 365.316 1185.24 333.247C1185.23 301.179 1174.13 275.868 1159.84 275.876C1145.55 275.884 1134.49 301.207 1134.5 333.276C1134.52 365.344 1145.9 390.655 1159.9 390.647ZM1159.85 280.94C1171.22 280.933 1180.85 304.895 1180.87 333.25C1180.88 361.605 1171.27 385.577 1159.9 385.583C1148.52 385.59 1138.89 361.628 1138.87 333.273C1138.86 304.918 1148.76 280.946 1159.85 280.94Z" fill="#394238"/>
<path d="M1096.02 357.265C1113.81 357.255 1127.79 325.178 1127.77 283.996C1127.75 242.813 1113.74 210.753 1095.95 210.763C1078.16 210.773 1064.18 242.849 1064.2 284.032C1064.22 325.214 1078.23 357.275 1096.02 357.265ZM1095.95 216.164C1110.83 216.156 1123.38 247.204 1123.4 284.336C1123.42 321.13 1110.89 352.53 1096.02 352.539C1081.15 352.547 1068.59 321.499 1068.58 284.367C1068.56 247.235 1081.08 216.172 1095.95 216.164Z" fill="#394238"/>
<path d="M1030.11 338.398C1039.15 338.393 1046.14 322.862 1046.13 303.283C1046.12 283.704 1039.11 268.181 1030.07 268.186C1021.04 268.191 1014.04 283.722 1014.05 303.301C1014.06 322.88 1021.07 338.403 1030.11 338.398ZM1030.08 273.249C1035.62 273.246 1041.75 285.732 1041.76 303.285C1041.76 320.839 1035.65 333.332 1030.11 333.335C1024.57 333.338 1018.44 320.852 1018.43 303.299C1018.42 285.745 1024.54 273.252 1030.08 273.249Z" fill="#394238"/>
<path d="M1159.92 424.066C1161.08 424.066 1162.25 423.052 1162.25 421.364L1162.21 344.063C1162.21 342.713 1161.34 341.363 1159.88 341.364C1158.42 341.365 1157.54 342.378 1157.55 344.066L1157.58 421.367C1157.87 423.055 1158.75 424.067 1159.92 424.066Z" fill="#394238"/>
<path d="M1096.04 400.135C1097.21 400.134 1098.37 399.121 1098.37 397.433L1098.33 312.367C1098.33 311.017 1097.45 309.667 1096 309.668C1094.54 309.669 1093.66 310.682 1093.66 312.37L1093.71 397.773C1094 399.123 1094.87 400.135 1096.04 400.135Z" fill="#394238"/>
<path d="M1030.12 361.69C1031.29 361.689 1032.46 360.676 1032.45 358.988L1032.43 312.404C1032.43 311.054 1031.56 309.704 1030.1 309.705C1028.64 309.706 1027.77 310.719 1027.77 312.407L1027.79 359.328C1027.79 360.678 1028.66 361.69 1030.12 361.69Z" fill="#394238"/>
<path d="M-32.6071 731.243C-31.4407 731.242 -30.2748 730.229 -30.2756 728.541L-30.5423 171.565L236.066 336.82C236.649 337.157 237.524 337.157 238.107 336.819L376.286 248.638C392.903 238.164 412.441 238.153 428.776 248.608L477.489 279.974C478.656 280.648 479.822 280.31 480.405 278.96C480.987 277.609 480.695 276.259 479.528 275.584L430.815 244.219C413.021 232.752 391.734 232.764 373.952 244.251L236.647 331.756L-32.0034 165.152C-32.5868 164.815 -33.4616 164.815 -34.0447 165.153C-34.6277 165.491 -35.2104 166.504 -35.21 167.179L-34.9412 728.544C-34.6489 729.894 -33.7735 731.244 -32.6071 731.243Z" fill="#394238"/>
<path d="M409.62 444.067C410.495 444.066 411.078 443.728 411.661 442.715C412.244 441.365 411.951 440.015 410.784 439.34L168.679 289.262C167.512 288.587 166.346 288.925 165.763 290.276C165.18 291.627 165.473 292.977 166.64 293.651L408.745 443.73C409.037 443.729 409.329 444.067 409.62 444.067Z" fill="#394238"/>
<path d="M1667.75 128.752C1690.79 128.739 1709.44 105.436 1709.43 77.0813C1709.42 48.7262 1690.74 25.445 1667.71 25.4579C1644.67 25.4709 1626.02 48.7731 1626.03 77.1283C1626.34 105.821 1644.72 128.765 1667.75 128.752ZM1667.71 30.5213C1688.12 30.5098 1705.04 51.4291 1705.06 77.0838C1705.07 102.738 1688.46 123.677 1667.75 123.688C1647.34 123.7 1630.42 102.78 1630.4 77.1258C1630.68 51.471 1647.3 30.5328 1667.71 30.5213Z" fill="#394238"/>
<path d="M1673.88 128.073C1675.05 128.072 1676.21 127.059 1676.21 125.371L1676.19 84.8638L1686.98 84.8577C1687.57 84.8574 1688.15 84.5195 1688.73 83.844C1689.02 83.1687 1689.31 82.4935 1689.02 81.8185C1689.02 81.4809 1686.68 70.3427 1680.84 55.1558C1676.76 44.3561 1668.88 37.9469 1658.96 36.9398C1648.47 35.933 1637.1 41.3404 1632.73 49.7819C1632.14 50.7949 1632.44 52.4825 1633.31 53.1571C1634.48 53.8316 1635.64 53.4934 1636.23 52.4804C1639.43 46.74 1648.76 40.9962 1658.68 42.0033C1664.51 42.6752 1672.38 45.7088 1676.76 57.1834C1680.56 67.3081 1682.9 75.7459 1683.77 79.7961L1673.86 79.8017C1672.69 79.8023 1671.52 80.8157 1671.53 82.5035L1671.55 126.049C1671.84 127.061 1672.71 128.074 1673.88 128.073Z" fill="#394238"/>
<path d="M1662.5 110.864C1667.16 110.861 1670.66 105.458 1670.65 98.3694C1670.65 91.2806 1667.15 85.8816 1662.48 85.8842C1657.82 85.8869 1654.32 91.2898 1654.32 98.3786C1654.33 105.467 1657.83 110.866 1662.5 110.864ZM1662.49 91.2852C1664.24 91.2842 1666.28 94.3211 1666.28 98.7094C1666.28 103.098 1664.24 106.137 1662.49 106.138C1660.74 106.139 1658.7 103.102 1658.7 98.7137C1658.7 94.3254 1660.74 91.2862 1662.49 91.2852Z" fill="#394238"/>
<path d="M1655.47 57.8701C1661.6 57.8666 1668.6 55.8373 1675.88 50.0947C1676.76 49.4191 1677.05 47.7311 1676.46 46.7188C1675.88 45.7064 1674.42 45.3697 1673.55 46.0453C1654.02 61.2465 1638.56 46.7401 1637.68 46.0655C1636.81 45.0533 1635.35 45.3917 1634.47 46.4048C1633.6 47.418 1633.89 49.1056 1634.77 50.1178C1635.06 50.1177 1643.23 57.877 1655.47 57.8701Z" fill="#394238"/>
<path d="M1655.18 57.8704C1660.14 57.8676 1664.51 53.1393 1664.51 47.0632C1664.51 40.9871 1660.42 36.2635 1655.17 36.2665C1650.22 36.2693 1645.84 40.9976 1645.85 47.0737C1645.85 53.1498 1649.93 57.8734 1655.18 57.8704ZM1655.18 41.6675C1657.8 41.666 1660.13 44.3652 1660.14 47.4032C1660.14 50.4413 1657.81 53.1431 1655.18 53.1445C1652.56 53.146 1650.22 50.4468 1650.22 47.4088C1650.22 44.3707 1652.55 41.6689 1655.18 41.6675Z" fill="#394238"/>
<path d="M1653.09 566.576C1654.26 566.576 1655.42 565.562 1655.42 563.875L1655.3 315.767C1655.28 274.585 1632.24 268.521 1618.54 268.529L1581.5 268.55C1567.21 268.558 1564.29 256.745 1564.29 246.956L1564.27 212.525C1564.27 211.174 1563.39 209.825 1561.94 209.825C1560.48 209.826 1559.6 210.839 1559.61 212.527L1559.62 246.958C1559.63 263.836 1567.51 273.621 1581.21 273.614L1618.25 273.593C1632.83 273.585 1650.62 281.001 1650.64 315.77L1650.75 564.215C1651.05 565.565 1651.92 566.577 1653.09 566.576Z" fill="#394238"/>
<path d="M1395.61 573.473C1396.77 573.472 1397.94 572.459 1397.94 570.771L1397.82 315.912C1397.8 281.144 1415.29 273.707 1430.17 273.699L1487.61 273.667C1501.32 273.659 1509.19 263.865 1509.18 246.987L1509.14 167.66C1509.14 166.31 1508.26 164.96 1506.81 164.961C1505.35 164.962 1504.47 165.975 1504.47 167.663L1504.51 247.327C1504.52 257.117 1501.61 268.933 1487.32 268.941L1429.87 268.973C1416.17 268.981 1393.13 275.07 1393.15 316.252L1393.27 570.774C1393.27 572.462 1394.44 573.474 1395.61 573.473Z" fill="#394238"/>
<path d="M1545.9 219.624C1568.94 219.611 1587.59 196.309 1587.58 167.954C1587.57 139.599 1568.89 116.318 1545.85 116.33C1522.82 116.343 1504.17 139.646 1504.18 168.001C1504.19 196.356 1523.16 219.637 1545.9 219.624ZM1545.86 121.394C1566.27 121.382 1583.19 142.302 1583.21 167.956C1583.22 193.611 1566.61 214.549 1545.9 214.561C1525.49 214.572 1508.57 193.653 1508.55 167.998C1508.54 142.344 1525.44 121.405 1545.86 121.394Z" fill="#394238"/>
<path d="M1562.23 215.227C1563.4 215.226 1564.56 214.213 1564.56 212.525L1564.54 175.393L1578.54 175.385C1579.12 175.385 1580 175.047 1580.29 174.371C1580.58 173.696 1580.87 173.021 1580.58 172.008C1580.58 171.671 1577.66 160.533 1570.36 145.347C1565.4 134.885 1556.36 128.477 1544.69 127.47C1531.57 126.128 1516.99 131.537 1511.16 139.979C1510.29 140.992 1510.58 142.68 1511.46 143.692C1512.33 144.704 1513.79 144.366 1514.66 143.353C1518.74 137.274 1531.28 131.529 1544.4 132.872C1551.69 133.543 1561.32 136.913 1566.86 148.049C1571.53 158.173 1574.45 166.273 1575.62 170.661L1562.5 170.668C1561.33 170.669 1560.17 171.682 1560.17 173.37L1560.19 213.202C1559.9 214.215 1561.06 215.227 1562.23 215.227Z" fill="#394238"/>
<path d="M1790.01 285.649C1813.05 285.636 1831.7 262.334 1831.68 233.979C1831.67 205.623 1813 182.342 1789.96 182.355C1766.92 182.368 1748.27 205.67 1748.29 234.026C1748.3 262.381 1766.97 285.662 1790.01 285.649ZM1789.96 187.419C1810.38 187.407 1827.3 208.326 1827.31 233.981C1827.32 259.636 1810.71 280.574 1790.01 280.586C1769.59 280.597 1752.67 259.678 1752.66 234.023C1752.65 208.368 1769.55 187.43 1789.96 187.419Z" fill="#394238"/>
<path d="M1773.68 282.957C1774.85 282.957 1776.01 281.943 1776.01 280.256L1775.99 239.073C1775.99 237.723 1775.12 236.373 1773.66 236.374L1760.54 236.381C1761.7 231.992 1764.61 223.889 1769.27 213.76C1774.52 202.28 1784.43 199.236 1791.72 198.557C1804.55 197.199 1817.09 202.931 1821.47 209.004C1822.34 210.017 1823.51 210.354 1824.68 209.34C1825.55 208.327 1825.84 206.977 1824.97 205.627C1819.13 197.191 1804.55 191.798 1791.43 193.156C1779.76 194.513 1770.43 200.594 1765.77 211.061C1758.49 226.593 1755.87 237.397 1755.58 237.734C1755.29 238.41 1755.58 239.422 1755.87 240.097C1756.16 240.772 1757.04 241.109 1757.62 241.109L1771.62 241.101L1771.64 279.92C1771.64 281.946 1772.51 282.958 1773.68 282.957Z" fill="#394238"/>
<path d="M1795.25 268.093C1799.92 268.09 1803.41 262.687 1803.41 255.599C1803.41 248.51 1799.91 243.111 1795.24 243.113C1790.57 243.116 1787.08 248.519 1787.08 255.608C1787.08 262.696 1790.88 268.095 1795.25 268.093ZM1795.24 248.177C1796.99 248.176 1799.03 251.213 1799.04 255.601C1799.04 259.989 1797 263.028 1795.25 263.029C1793.5 263.03 1791.46 259.994 1791.45 255.605C1791.45 251.217 1793.49 248.178 1795.24 248.177Z" fill="#394238"/>
<path d="M1797.56 215.769C1812.72 215.76 1822.93 207.316 1822.93 206.978C1823.8 206.303 1824.09 204.615 1823.51 203.602C1822.92 202.59 1821.46 202.253 1820.59 202.929C1819.72 203.604 1799.6 220.156 1774.22 202.955C1773.06 202.28 1771.89 202.619 1771.31 203.969C1770.73 205.32 1771.02 206.67 1772.19 207.344C1781.23 213.753 1789.98 215.773 1797.56 215.769Z" fill="#394238"/>
<path d="M1795.52 215.77C1800.77 215.767 1805.14 210.702 1805.14 204.625C1805.14 198.549 1800.76 193.488 1795.51 193.491C1790.26 193.494 1785.89 198.56 1785.89 204.636C1785.89 210.712 1790.27 215.773 1795.52 215.77ZM1795.51 198.555C1798.43 198.553 1800.76 201.252 1800.76 204.628C1800.77 208.004 1798.43 210.705 1795.52 210.707C1792.6 210.709 1790.27 208.009 1790.27 204.634C1790.26 201.258 1792.6 198.556 1795.51 198.555Z" fill="#394238"/>
<path d="M852.894 507.616C854.061 507.615 854.935 507.615 856.102 507.277C856.685 507.276 857.268 506.601 857.559 506.263C857.85 505.588 858.142 504.912 857.85 504.237L844.407 444.834C852.876 469.134 862.801 491.745 875.635 498.151C880.302 500.512 884.967 500.509 889.924 498.481C890.507 498.143 890.798 497.805 891.089 497.13C891.381 496.455 891.38 495.78 891.089 495.105L845.543 380.359C843.499 374.96 839.998 370.573 835.914 367.537L778.739 326.387C768.238 318.967 755.115 318.637 744.329 325.731L490.13 496.005L491.517 348.49C491.517 347.14 490.641 345.79 489.475 345.791C488.308 345.792 487.142 346.805 487.143 348.155L485.758 500.059C485.758 501.071 486.05 501.746 486.925 502.421C487.509 502.758 488.383 502.758 489.258 502.42L746.664 330.118C755.993 323.699 767.365 324.031 776.7 330.777L833.291 371.927C836.792 374.626 839.71 378 841.461 382.387L885.839 494.77C882.924 495.447 880.008 495.111 877.091 493.762C861.34 485.67 848.49 445.17 839.436 415.807C837.392 409.057 835.347 402.307 833.303 396.907C833.011 395.557 831.553 394.882 830.678 395.558C829.804 396.234 828.929 397.247 829.222 398.597L852.892 502.89C832.771 502.901 821.375 453.961 812.025 414.472C810.856 409.072 809.395 403.671 808.226 398.609C807.934 397.259 806.767 396.584 805.601 396.922C804.435 397.261 803.852 398.611 803.853 399.961L818.766 487.381C817.6 487.72 816.434 487.383 815.267 486.708C802.724 479.289 792.201 427.31 789.276 407.734C789.276 407.058 788.692 406.384 788.4 406.046C770.606 392.216 747.569 392.229 729.787 406.079C728.913 406.755 728.622 408.443 729.206 409.455C729.789 410.467 731.248 410.804 732.122 410.129C748.155 397.63 768.859 397.281 785.194 409.424C785.779 413.474 788.411 429 792.502 445.201C798.929 471.19 805.935 486.376 813.228 490.76C816.144 492.446 819.352 492.444 822.267 490.755C823.142 490.417 823.725 489.066 823.432 488.054L817.877 455.989C826.347 484.677 836.856 507.625 852.894 507.616Z" fill="#394238"/>
<path d="M650.654 176.582C660.569 176.577 670.191 174.208 679.52 168.802C695.845 159.341 708.085 142.456 713.323 121.187C718.562 99.9177 716.802 77.3021 708.044 56.7158C699.286 36.467 684.698 20.9474 666.906 13.1935C649.114 5.43961 630.16 6.46296 613.835 15.9239C597.51 25.3848 585.27 42.2697 580.031 63.5391C574.793 84.8084 576.553 107.424 585.311 128.01C598.448 158.383 624.41 176.597 650.654 176.582ZM642.411 13.2073C649.993 13.203 657.576 14.8866 665.159 17.9204C681.784 25.3373 695.788 39.8446 703.962 59.081C712.136 78.3174 714.188 99.9202 708.949 119.839C704.001 139.758 692.636 155.292 677.476 164.415C645.7 182.661 606.033 165.468 588.809 125.645C580.635 106.409 578.584 84.8062 583.823 64.8872C588.771 44.9683 600.136 29.434 615.295 20.3113C624.041 15.5806 633.08 13.2125 642.411 13.2073Z" fill="#394238"/>
<path d="M696.712 153.265C697.003 153.265 697.295 153.265 697.586 152.927C698.752 152.251 699.043 150.901 698.459 149.551L671.017 84.0795L688.509 73.9428C689.092 73.6049 689.674 72.9295 689.674 72.2544C689.674 71.5792 689.673 70.5666 689.09 70.2293C688.798 69.5544 678.293 55.3827 659.622 37.1649C645.035 22.9955 630.455 24.0164 620.833 27.0599C603.631 32.8081 590.517 49.6936 587.025 63.5356C586.734 64.886 587.317 66.2359 588.484 66.5728C589.651 66.9097 590.817 66.2339 591.108 64.8835C594.601 52.3918 606.258 37.1949 622.002 31.7851C630.749 28.7421 643.579 28.0598 656.708 40.8797C670.711 54.3743 680.048 66.1837 683.55 70.9076L666.641 80.7064C665.475 81.3821 665.184 82.7326 665.768 84.0825L694.086 151.916C694.962 152.929 695.837 153.266 696.712 153.265Z" fill="#394238"/>
<path d="M664.625 136.068C666.083 136.067 667.541 135.728 668.998 135.052C675.12 131.336 676.865 121.208 672.486 111.421C668.399 101.634 660.232 96.913 654.11 100.63C647.988 104.346 646.243 114.474 650.622 124.261C653.833 131.685 659.376 136.071 664.625 136.068ZM668.696 113.449C671.616 120.198 671.036 127.963 666.955 130.328C663.165 132.693 657.331 128.645 654.412 121.896C651.492 115.146 652.072 107.382 656.153 105.017C659.943 102.652 665.485 106.699 668.696 113.449Z" fill="#394238"/>
<path d="M598.401 67.5802C611.231 67.5729 633.975 62.8343 649.123 31.7701C649.706 30.4195 649.414 29.0694 648.247 28.395C647.08 27.7205 645.914 28.0587 645.331 29.4093C625.23 70.6031 591.4 62.1831 589.941 61.5088C588.775 61.1719 587.609 62.1853 587.318 63.5357C587.027 64.8861 587.902 66.2358 589.069 66.5727C589.069 66.5727 592.569 67.5834 598.401 67.5802Z" fill="#394238"/>
<path d="M617.063 62.8433C619.105 62.8422 621.437 62.1658 623.478 61.1519C630.475 57.0973 633.386 47.3063 629.883 39.2068C626.38 31.1073 617.921 27.7365 610.925 31.7912C607.427 33.8185 605.095 37.1954 603.931 41.2468C602.766 45.2982 603.06 49.6863 604.812 53.7361C606.563 57.7858 609.481 60.4847 612.981 61.833C614.147 62.845 615.605 62.8442 617.063 62.8433ZM625.802 41.5721C628.137 46.9717 626.099 54.0617 621.435 56.7648C619.102 58.1163 616.478 58.4554 614.145 57.444C611.811 56.4326 609.769 54.4084 608.602 51.7086C607.434 49.0088 607.141 45.9709 608.014 43.2699C608.888 40.5689 610.636 38.205 612.969 36.8534C617.633 33.8128 623.466 36.1724 625.802 41.5721Z" fill="#394238"/>
<path d="M1915.91 730.484C1917.07 730.483 1918.24 729.47 1918.24 727.782L1918.13 504.992C1918.13 504.316 1917.84 503.641 1917.26 502.967C1916.67 502.629 1916.09 502.292 1915.51 502.293L1516.05 591.971C1476.1 598.407 1435.86 590.666 1399.69 569.758L1248.01 482.415C1230.21 466.559 1205.43 465.898 1186.77 480.424L1031.11 600.345C1030.23 601.021 1029.94 602.709 1030.53 603.721C1031.11 604.734 1032.57 605.071 1033.44 604.395L1189.11 485.148C1206.3 471.636 1228.76 472.636 1245.39 487.142L1245.68 487.479L1397.65 574.822C1434.69 596.068 1475.81 603.808 1516.63 597.372L1913.76 508.37L1913.86 728.122C1913.87 729.135 1914.74 730.484 1915.91 730.484Z" fill="#394238"/>
<path d="M1417.04 275.732C1417.62 275.731 1418.5 275.393 1418.79 274.718C1419.37 273.705 1419.08 272.017 1418.2 271.343L1186.87 91.215C1169.08 77.385 1146.04 77.398 1128.26 91.248L941.119 237.18C940.245 237.855 939.954 239.543 940.538 240.556C941.121 241.568 942.579 241.905 943.454 241.229L1130.6 95.2974C1146.92 82.4609 1167.92 82.4491 1184.25 95.2672L1415.58 275.395C1416.17 275.732 1416.75 275.732 1417.04 275.732Z" fill="#394238"/>
<path d="M1767.51 196.545C1768.1 196.545 1768.39 196.207 1768.97 195.869C1769.85 194.856 1770.14 193.505 1769.26 192.156C1763.13 183.045 1753.22 177.987 1740.68 177.994L1703.64 178.015C1689.35 178.023 1686.43 166.21 1686.43 156.421L1686.41 121.652C1686.41 120.302 1685.54 118.952 1684.08 118.953C1682.62 118.954 1681.75 119.967 1681.75 121.655L1681.76 156.761C1681.77 173.639 1689.65 183.424 1703.35 183.416L1740.68 183.395C1748.26 183.391 1759.05 185.41 1765.76 195.533C1766.06 196.208 1766.93 196.545 1767.51 196.545Z" fill="#394238"/>
<path d="M1915.91 729.134C1917.07 729.133 1918.24 728.12 1918.24 726.432L1918.07 374.356C1918.05 336.886 1899.1 333.859 1881.31 333.869C1872.56 333.874 1867.6 334.214 1862.94 334.554C1858.86 334.894 1855.06 335.234 1848.36 335.238C1834.07 335.246 1831.15 323.433 1831.14 313.643L1831.1 233.979C1831.1 232.629 1830.23 231.279 1828.77 231.28C1827.31 231.281 1826.44 232.294 1826.44 233.982L1826.48 313.646C1826.48 330.524 1834.36 340.309 1848.07 340.301C1854.78 340.297 1858.57 339.958 1862.65 339.618C1867.31 339.278 1871.98 338.938 1880.73 338.933C1897.64 338.923 1913.1 341.615 1913.11 374.358L1913.28 726.772C1913.87 728.122 1914.74 729.134 1915.91 729.134Z" fill="#394238"/>
<path d="M1683.12 560.146C1684.29 560.145 1685.46 559.132 1685.46 557.444L1685.37 382.25C1685.36 347.481 1702.85 340.045 1717.72 340.037L1754.46 340.016C1768.17 340.008 1776.04 330.215 1776.03 313.336L1776.01 278.905C1776.01 277.555 1775.14 276.205 1773.68 276.206C1772.22 276.207 1771.35 277.22 1771.35 278.908L1771.36 313.339C1771.37 323.128 1768.46 334.945 1754.17 334.953L1717.13 334.974C1703.43 334.981 1680.39 341.07 1680.41 382.253L1680.5 557.447C1680.79 558.797 1681.96 560.147 1683.12 560.146Z" fill="#394238"/>
<path d="M586.833 266.41C587.708 266.409 588.291 266.071 588.583 265.059C589.165 263.708 588.873 262.358 587.706 261.683C553.869 238.748 532.56 193.865 532.536 144.581C532.502 71.6674 578.838 12.2305 635.702 12.1985C640.659 12.1958 645.616 12.5305 650.574 13.5404C651.741 13.8773 652.907 12.864 653.198 11.5136C653.488 10.1632 652.613 8.81341 651.447 8.47651C646.197 7.46678 640.948 7.13217 635.699 7.13512C576.503 7.16844 528.126 68.9694 528.162 144.583C528.187 195.555 550.08 242.126 585.375 266.073C586.25 266.41 586.542 266.41 586.833 266.41Z" fill="#394238"/>
<path d="M1097.28 555.412C1097.87 555.412 1098.45 555.074 1099.03 554.399C1099.91 553.385 1099.61 551.698 1098.74 550.686C1094.95 546.975 1090.86 543.601 1086.49 539.891C1055.85 514.253 1035.15 509.201 1015.02 504.487C994.61 499.772 975.361 495.057 945.314 470.095C915.266 445.132 905.342 425.222 895.126 404.298C884.91 383.713 874.402 362.79 843.48 337.153C842.604 336.478 841.729 335.804 841.146 335.129C840.271 334.454 838.813 334.455 838.23 335.806C837.647 336.819 837.648 338.506 838.815 339.181C839.69 339.855 840.273 340.53 841.149 341.205C871.196 366.168 881.12 386.078 891.336 407.001C901.553 427.587 912.06 448.51 942.983 474.147C973.906 499.784 994.321 504.836 1014.44 509.551C1034.86 514.265 1054.11 518.98 1084.15 543.943C1088.24 547.316 1092.32 551.027 1096.12 554.4C1096.41 555.075 1096.7 555.413 1097.28 555.412Z" fill="#394238"/>
<path d="M1153.25 512.173C1153.84 512.173 1154.42 511.835 1154.71 511.497C1155.58 510.484 1155.58 508.796 1154.71 507.784C1148.29 500.699 1141 493.614 1132.54 486.53C1101.9 460.892 1081.2 455.841 1061.07 451.126C1040.66 446.412 1021.41 441.697 991.364 416.734C961.317 391.771 951.393 371.861 941.176 350.938C930.96 330.352 920.452 309.429 889.53 283.792C858.899 258.155 838.192 253.103 818.069 248.389C797.654 243.674 778.406 238.959 748.359 213.996C718.311 189.034 708.387 168.786 698.463 149.213C697.879 147.863 696.421 147.526 695.546 148.202C694.38 148.878 694.089 150.565 694.673 151.578C704.597 171.488 715.105 192.411 745.736 218.049C776.367 243.686 797.074 248.738 817.197 253.452C837.611 258.167 856.86 262.882 886.907 287.844C916.955 312.807 926.879 332.718 937.095 353.641C947.311 374.226 957.819 395.149 988.742 420.786C1019.37 446.424 1040.08 451.476 1060.2 456.19C1080.62 460.904 1099.87 465.619 1129.91 490.582C1138.37 497.666 1145.37 504.413 1151.5 511.499C1152.09 511.836 1152.67 512.173 1153.25 512.173Z" fill="#394238"/>
<path d="M409.73 670.233C410.897 670.232 412.063 669.219 412.062 667.531L411.911 353.262C411.882 292.838 442.203 280.331 467.865 280.317L560.888 280.265C583.05 280.252 595.581 264.38 595.568 237.037L595.521 138.469C595.52 137.119 594.645 135.769 593.187 135.77C591.729 135.771 590.854 136.784 590.855 138.472L590.902 237.04C590.911 254.256 585.672 275.187 560.593 275.201L467.571 275.254C445.117 275.266 407.213 285.415 407.246 353.264L407.396 667.534C407.688 668.884 408.564 670.234 409.73 670.233Z" fill="#394238"/>
<path d="M840.586 378.675C841.752 378.674 842.918 377.661 842.917 375.973L842.906 353.019C842.874 285.169 804.96 275.064 782.506 275.076L720.102 275.112C695.024 275.126 689.765 254.537 689.757 236.984L689.72 160.358C689.719 159.008 688.844 157.658 687.386 157.659C685.928 157.659 685.054 158.673 685.054 160.36L685.091 236.987C685.104 264.329 697.651 280.188 719.813 280.175L782.217 280.14C807.587 280.126 838.212 292.936 838.24 353.022L838.251 375.976C838.252 377.326 839.419 378.676 840.586 378.675Z" fill="#394238"/>
<path d="M1212.72 476.021C1213.31 476.02 1213.6 475.683 1214.18 475.345C1215.05 474.331 1215.35 472.981 1214.47 471.631C1205.13 457.797 1193.75 445.313 1178.88 432.832C1148.24 407.194 1127.54 402.143 1107.41 397.428C1087 392.714 1067.75 387.999 1037.7 363.036C1007.66 338.073 997.733 318.163 987.516 297.24C977.3 276.654 966.792 255.731 935.87 230.094C904.947 204.457 884.532 199.405 864.409 194.69C843.994 189.976 824.746 185.261 794.698 160.298C764.651 135.336 754.727 115.425 744.511 94.5021C735.462 76.2789 725.83 57.3809 701.907 35.1153C701.907 35.1153 701.907 35.1153 701.616 34.7779C682.652 16.2227 660.194 6.44605 636.282 6.45951C635.116 6.46016 633.95 7.4735 633.951 9.16131C633.951 10.8491 634.827 11.8613 636.285 11.8605C659.03 11.8477 680.614 21.2873 698.702 38.8303L698.993 39.1677C722.624 60.7583 731.381 78.6441 740.721 97.5423C750.937 118.128 761.445 139.051 792.368 164.688C823.29 190.325 843.705 195.377 863.828 200.092C884.243 204.806 903.491 209.521 933.539 234.484C963.586 259.446 973.219 279.357 983.435 300.28C993.651 320.866 1004.16 341.789 1035.08 367.426C1066 393.063 1086.42 398.115 1106.54 402.83C1126.96 407.544 1146.21 412.259 1176.25 437.222C1191.13 449.703 1202.22 461.511 1210.97 475.009C1211.56 475.684 1212.14 476.021 1212.72 476.021Z" fill="#394238"/>
<path d="M334.524 731.036C334.815 731.036 335.398 731.036 335.69 730.698L732.122 410.129C748.446 397.293 769.442 397.281 785.778 410.099C786.653 410.774 788.111 410.435 788.693 409.422C789.276 408.409 788.984 406.722 788.109 406.047C770.314 392.217 747.277 392.23 729.496 406.08L333.064 726.649C332.189 727.324 331.898 729.012 332.482 730.025C333.065 730.362 333.94 731.037 334.524 731.036Z" fill="#394238"/>
<path d="M1188.93 730.555C1189.52 730.554 1190.39 730.216 1190.68 729.541C1191.27 728.528 1190.97 726.84 1190.1 726.166L885.837 483.293C884.962 482.618 883.504 482.957 882.921 483.97C882.338 484.983 882.631 486.67 883.506 487.345L1187.77 729.543C1188.06 730.218 1188.35 730.555 1188.93 730.555Z" fill="#394238"/>
<path d="M1540.64 201.736C1545.31 201.734 1548.81 196.331 1548.8 189.242C1548.8 182.153 1545.3 176.754 1540.63 176.757C1535.97 176.759 1532.47 182.162 1532.47 189.251C1532.48 196.34 1535.98 201.739 1540.64 201.736ZM1540.64 181.82C1542.38 181.819 1544.43 184.856 1544.43 189.244C1544.43 193.633 1542.39 196.672 1540.64 196.673C1538.89 196.674 1536.85 193.637 1536.85 189.249C1536.85 184.86 1538.89 181.821 1540.64 181.82Z" fill="#394238"/>
<path d="M1538.29 149.416C1545.87 149.412 1554.62 147.381 1563.95 140.962C1565.12 140.287 1565.41 138.599 1564.82 137.586C1564.24 136.236 1562.78 135.9 1561.91 136.575C1536.54 154.143 1516.42 137.613 1515.54 136.601C1514.67 135.927 1513.21 135.927 1512.62 137.278C1512.04 138.291 1512.04 139.979 1513.21 140.653C1512.92 140.991 1523.42 149.424 1538.29 149.416Z" fill="#394238"/>
<path d="M1540.62 149.414C1545.87 149.411 1550.24 144.345 1550.24 138.269C1550.23 132.193 1545.86 127.132 1540.61 127.135C1535.36 127.138 1530.99 132.204 1530.99 138.28C1530.99 144.356 1535.37 149.417 1540.62 149.414ZM1540.61 132.536C1543.53 132.534 1545.86 135.233 1545.86 138.609C1545.87 141.985 1543.53 144.686 1540.62 144.688C1537.7 144.69 1535.37 141.991 1535.37 138.615C1535.36 134.902 1537.7 132.538 1540.61 132.536Z" fill="#394238"/>
<path d="M1584.09 183.484L1609.46 183.469C1623.17 183.462 1631.04 173.668 1631.03 156.79L1630.99 83.8768C1630.99 82.5265 1630.12 81.1768 1628.66 81.1776C1627.2 81.1784 1626.33 82.1916 1626.33 83.8794L1626.36 156.793C1626.37 166.582 1623.46 178.398 1609.17 178.406L1583.8 178.42C1582.63 178.421 1581.47 179.434 1581.47 181.122C1581.47 182.81 1582.93 183.484 1584.09 183.484Z" fill="#394238"/>
</g>
<defs>
<clipPath id="clip0">
<rect width="1952.89" height="730.483" fill="white" transform="matrix(-1 0.000562835 0.000478854 1 1917.89 0)"/>
</clipPath>
</defs>
</svg>
