<svg width="1920" height="732" viewBox="0 0 1920 732" fill="none" xmlns="http://www.w3.org/2000/svg">
<g opacity="0.12" clip-path="url(#clip0_503:1078)">
<path d="M1194.9 390.647C1209.19 390.639 1220.26 365.316 1220.24 333.248C1220.23 301.179 1209.13 275.869 1194.84 275.877C1180.55 275.885 1169.49 301.208 1169.5 333.276C1169.52 365.345 1180.9 390.655 1194.9 390.647ZM1194.85 280.94C1206.22 280.934 1215.85 304.895 1215.87 333.25C1215.88 361.605 1206.27 385.578 1194.9 385.584C1183.52 385.59 1173.89 361.629 1173.87 333.274C1173.86 304.919 1183.76 280.946 1194.85 280.94Z" fill="#969A7E"/>
<path d="M1131.02 357.265C1148.81 357.255 1162.79 325.178 1162.77 283.996C1162.75 242.813 1148.74 210.753 1130.95 210.763C1113.16 210.773 1099.18 242.849 1099.2 284.032C1099.22 325.214 1113.23 357.275 1131.02 357.265ZM1130.95 216.164C1145.83 216.156 1158.38 247.204 1158.4 284.336C1158.42 321.13 1145.89 352.53 1131.02 352.539C1116.15 352.547 1103.59 321.499 1103.58 284.367C1103.56 247.235 1116.08 216.172 1130.95 216.164Z" fill="#969A7E"/>
<path d="M1065.11 338.398C1074.15 338.393 1081.14 322.862 1081.13 303.283C1081.12 283.705 1074.11 268.181 1065.07 268.186C1056.04 268.191 1049.04 283.723 1049.05 303.301C1049.06 322.88 1056.07 338.404 1065.11 338.398ZM1065.08 273.249C1070.62 273.246 1076.75 285.732 1076.76 303.286C1076.76 320.839 1070.65 333.332 1065.11 333.335C1059.57 333.338 1053.44 320.852 1053.43 303.299C1053.42 285.746 1059.54 273.252 1065.08 273.249Z" fill="#969A7E"/>
<path d="M1194.92 424.066C1196.08 424.065 1197.25 423.052 1197.25 421.364L1197.21 344.063C1197.21 342.713 1196.34 341.363 1194.88 341.364C1193.42 341.364 1192.54 342.378 1192.55 344.065L1192.58 421.367C1192.87 423.055 1193.75 424.067 1194.92 424.066Z" fill="#969A7E"/>
<path d="M1131.04 400.135C1132.21 400.134 1133.37 399.121 1133.37 397.433L1133.33 312.367C1133.33 311.017 1132.45 309.667 1131 309.668C1129.54 309.669 1128.66 310.682 1128.66 312.37L1128.71 397.773C1129 399.123 1129.87 400.135 1131.04 400.135Z" fill="#969A7E"/>
<path d="M1065.12 361.69C1066.29 361.689 1067.46 360.676 1067.45 358.988L1067.43 312.405C1067.43 311.054 1066.56 309.705 1065.1 309.705C1063.64 309.706 1062.77 310.719 1062.77 312.407L1062.79 359.328C1062.79 360.678 1063.66 361.691 1065.12 361.69Z" fill="#969A7E"/>
<path d="M2.3929 731.243C3.55934 731.242 4.72524 730.229 4.72443 728.541L4.45772 171.565L271.066 336.82C271.649 337.157 272.524 337.157 273.107 336.819L411.286 248.637C427.903 238.164 447.441 238.153 463.776 248.608L512.489 279.974C513.656 280.648 514.822 280.31 515.405 278.959C515.987 277.609 515.695 276.259 514.528 275.584L465.815 244.218C448.021 232.751 426.734 232.763 408.952 244.25L271.647 331.756L2.99664 165.152C2.41323 164.815 1.53841 164.815 0.955322 165.153C0.372293 165.491 -0.210352 166.504 -0.210029 167.179L0.0587825 728.544C0.351055 729.894 1.22652 731.243 2.3929 731.243Z" fill="#969A7E"/>
<path d="M444.62 444.067C445.495 444.066 446.078 443.728 446.661 442.715C447.244 441.365 446.951 440.015 445.784 439.34L203.679 289.262C202.512 288.587 201.346 288.925 200.763 290.276C200.18 291.626 200.473 292.977 201.64 293.651L443.745 443.73C444.037 443.729 444.329 444.067 444.62 444.067Z" fill="#969A7E"/>
<path d="M1702.75 128.752C1725.79 128.739 1744.44 105.437 1744.43 77.0814C1744.42 48.7263 1725.74 25.4451 1702.71 25.458C1679.67 25.471 1661.02 48.7732 1661.03 77.1284C1661.34 105.821 1679.72 128.765 1702.75 128.752ZM1702.71 30.5215C1723.12 30.51 1740.04 51.4292 1740.06 77.0839C1740.07 102.739 1723.46 123.677 1702.75 123.688C1682.34 123.7 1665.42 102.781 1665.4 77.1259C1665.68 51.4711 1682.3 30.5329 1702.71 30.5215Z" fill="#969A7E"/>
<path d="M1708.88 128.073C1710.05 128.072 1711.21 127.059 1711.21 125.371L1711.19 84.8634L1721.98 84.8573C1722.57 84.857 1723.15 84.5191 1723.73 83.8437C1724.02 83.1684 1724.31 82.4931 1724.02 81.8181C1724.02 81.4806 1721.68 70.3424 1715.84 55.1554C1711.76 44.3557 1703.88 37.9465 1693.96 36.9394C1683.47 35.9326 1672.1 41.34 1667.73 49.7815C1667.14 50.7945 1667.44 52.4821 1668.31 53.1568C1669.48 53.8312 1670.64 53.493 1671.23 52.48C1674.43 46.7397 1683.76 40.9959 1693.68 42.003C1699.51 42.6748 1707.38 45.7084 1711.76 57.1831C1715.56 67.3078 1717.9 75.7455 1718.77 79.7957L1708.86 79.8013C1707.69 79.802 1706.52 80.8153 1706.53 82.5031L1706.55 126.049C1706.84 127.061 1707.71 128.073 1708.88 128.073Z" fill="#969A7E"/>
<path d="M1697.5 110.864C1702.16 110.861 1705.66 105.458 1705.65 98.3696C1705.65 91.2809 1702.15 85.8819 1697.48 85.8845C1692.82 85.8871 1689.32 91.2901 1689.32 98.3788C1689.33 105.468 1692.83 110.867 1697.5 110.864ZM1697.49 91.2855C1699.24 91.2845 1701.28 94.3214 1701.28 98.7097C1701.28 103.098 1699.24 106.137 1697.49 106.138C1695.74 106.139 1693.7 103.102 1693.7 98.7139C1693.7 94.3256 1695.74 91.2864 1697.49 91.2855Z" fill="#969A7E"/>
<path d="M1690.47 57.8697C1696.6 57.8663 1703.6 55.837 1710.88 50.0943C1711.76 49.4187 1712.05 47.7307 1711.46 46.7184C1710.88 45.706 1709.42 45.3693 1708.55 46.0449C1689.02 61.2462 1673.56 46.7397 1672.68 46.0651C1671.81 45.0529 1670.35 45.3913 1669.47 46.4045C1668.6 47.4176 1668.89 49.1053 1669.77 50.1175C1670.06 50.1173 1678.23 57.8766 1690.47 57.8697Z" fill="#969A7E"/>
<path d="M1690.18 57.8709C1695.14 57.8681 1699.51 53.1398 1699.51 47.0637C1699.51 40.9876 1695.42 36.264 1690.17 36.267C1685.22 36.2698 1680.84 40.9981 1680.85 47.0742C1680.85 53.1503 1684.93 57.8739 1690.18 57.8709ZM1690.18 41.668C1692.8 41.6665 1695.13 44.3657 1695.14 47.4037C1695.14 50.4418 1692.81 53.1436 1690.18 53.145C1687.56 53.1465 1685.22 50.4473 1685.22 47.4093C1685.22 44.3712 1687.55 41.6694 1690.18 41.668Z" fill="#969A7E"/>
<path d="M1688.09 566.576C1689.26 566.575 1690.42 565.562 1690.42 563.874L1690.3 315.767C1690.28 274.584 1667.24 268.521 1653.54 268.529L1616.5 268.55C1602.21 268.558 1599.29 256.745 1599.29 246.955L1599.27 212.524C1599.27 211.174 1598.39 209.824 1596.94 209.825C1595.48 209.826 1594.6 210.839 1594.61 212.527L1594.62 246.958C1594.63 263.836 1602.51 273.621 1616.21 273.613L1653.25 273.592C1667.83 273.584 1685.62 281.001 1685.64 315.769L1685.75 564.214C1686.05 565.564 1686.92 566.577 1688.09 566.576Z" fill="#969A7E"/>
<path d="M1430.61 573.473C1431.77 573.472 1432.94 572.459 1432.94 570.771L1432.82 315.913C1432.8 281.144 1450.29 273.708 1465.17 273.699L1522.61 273.667C1536.32 273.659 1544.19 263.865 1544.18 246.987L1544.14 167.66C1544.14 166.31 1543.26 164.96 1541.81 164.961C1540.35 164.962 1539.47 165.975 1539.47 167.663L1539.51 247.328C1539.52 257.117 1536.61 268.933 1522.32 268.941L1464.87 268.973C1451.17 268.981 1428.13 275.07 1428.15 316.253L1428.27 570.774C1428.27 572.462 1429.44 573.474 1430.61 573.473Z" fill="#969A7E"/>
<path d="M1580.9 219.625C1603.94 219.612 1622.59 196.31 1622.58 167.954C1622.57 139.599 1603.89 116.318 1580.85 116.331C1557.82 116.344 1539.17 139.646 1539.18 168.001C1539.19 196.357 1558.16 219.638 1580.9 219.625ZM1580.86 121.395C1601.27 121.383 1618.19 142.302 1618.21 167.957C1618.22 193.612 1601.61 214.55 1580.9 214.561C1560.49 214.573 1543.57 193.654 1543.55 167.999C1543.54 142.344 1560.44 121.406 1580.86 121.395Z" fill="#969A7E"/>
<path d="M1597.23 215.227C1598.4 215.226 1599.56 214.213 1599.56 212.525L1599.54 175.393L1613.54 175.385C1614.12 175.385 1615 175.047 1615.29 174.372C1615.58 173.697 1615.87 173.021 1615.58 172.009C1615.58 171.671 1612.66 160.533 1605.36 145.347C1600.4 134.886 1591.36 128.477 1579.69 127.471C1566.57 126.128 1551.99 131.537 1546.16 139.979C1545.29 140.993 1545.58 142.68 1546.46 143.692C1547.33 144.705 1548.79 144.366 1549.66 143.353C1553.74 137.275 1566.28 131.529 1579.4 132.872C1586.69 133.543 1596.32 136.913 1601.86 148.05C1606.53 158.174 1609.45 166.274 1610.62 170.661L1597.5 170.669C1596.33 170.669 1595.17 171.683 1595.17 173.37L1595.19 213.203C1594.9 214.216 1596.06 215.228 1597.23 215.227Z" fill="#969A7E"/>
<path d="M1825.01 285.649C1848.05 285.636 1866.7 262.334 1866.68 233.979C1866.67 205.624 1848 182.343 1824.96 182.356C1801.92 182.368 1783.27 205.671 1783.29 234.026C1783.3 262.381 1801.97 285.662 1825.01 285.649ZM1824.96 187.419C1845.38 187.407 1862.3 208.327 1862.31 233.981C1862.32 259.636 1845.71 280.574 1825.01 280.586C1804.59 280.597 1787.67 259.678 1787.66 234.023C1787.65 208.369 1804.55 187.43 1824.96 187.419Z" fill="#969A7E"/>
<path d="M1808.68 282.958C1809.85 282.957 1811.01 281.944 1811.01 280.256L1810.99 239.073C1810.99 237.723 1810.12 236.373 1808.66 236.374L1795.54 236.381C1796.7 231.993 1799.61 223.889 1804.27 213.76C1809.52 202.28 1819.43 199.236 1826.72 198.557C1839.55 197.2 1852.09 202.931 1856.47 209.005C1857.34 210.017 1858.51 210.354 1859.68 209.34C1860.55 208.327 1860.84 206.977 1859.97 205.627C1854.13 197.191 1839.55 191.799 1826.43 193.156C1814.76 194.513 1805.43 200.594 1800.77 211.061C1793.49 226.593 1790.87 237.397 1790.58 237.735C1790.29 238.41 1790.58 239.422 1790.87 240.097C1791.16 240.772 1792.04 241.109 1792.62 241.109L1806.62 241.101L1806.64 279.921C1806.64 281.946 1807.51 282.958 1808.68 282.958Z" fill="#969A7E"/>
<path d="M1830.25 268.092C1834.92 268.09 1838.41 262.687 1838.41 255.598C1838.41 248.509 1834.91 243.11 1830.24 243.113C1825.57 243.116 1822.08 248.519 1822.08 255.607C1822.08 262.696 1825.88 268.095 1830.25 268.092ZM1830.24 248.176C1831.99 248.175 1834.03 251.212 1834.04 255.601C1834.04 259.989 1832 263.028 1830.25 263.029C1828.5 263.03 1826.46 259.993 1826.45 255.605C1826.45 251.217 1828.49 248.177 1830.24 248.176Z" fill="#969A7E"/>
<path d="M1832.56 215.77C1847.72 215.761 1857.93 207.316 1857.93 206.979C1858.8 206.303 1859.09 204.615 1858.51 203.603C1857.92 202.59 1856.46 202.254 1855.59 202.929C1854.72 203.605 1834.6 220.157 1809.22 202.955C1808.06 202.281 1806.89 202.619 1806.31 203.97C1805.73 205.32 1806.02 206.67 1807.19 207.345C1816.23 213.753 1824.98 215.774 1832.56 215.77Z" fill="#969A7E"/>
<path d="M1830.52 215.771C1835.77 215.768 1840.14 210.702 1840.14 204.626C1840.14 198.55 1835.76 193.489 1830.51 193.492C1825.26 193.495 1820.89 198.561 1820.89 204.637C1820.89 210.713 1825.27 215.774 1830.52 215.771ZM1830.51 198.555C1833.43 198.554 1835.76 201.253 1835.76 204.628C1835.77 208.004 1833.43 210.706 1830.52 210.707C1827.6 210.709 1825.27 208.01 1825.27 204.634C1825.26 201.259 1827.6 198.557 1830.51 198.555Z" fill="#969A7E"/>
<path d="M887.894 507.616C889.061 507.616 889.935 507.615 891.102 507.277C891.685 507.277 892.268 506.601 892.559 506.264C892.85 505.588 893.142 504.913 892.85 504.238L879.407 444.835C887.876 469.135 897.801 491.746 910.635 498.152C915.302 500.512 919.967 500.51 924.924 498.481C925.507 498.144 925.798 497.806 926.089 497.131C926.381 496.455 926.38 495.78 926.089 495.105L880.543 380.36C878.499 374.96 874.998 370.574 870.914 367.538L813.739 326.388C803.238 318.967 790.115 318.637 779.329 325.732L525.13 496.006L526.517 348.491C526.517 347.141 525.641 345.791 524.475 345.792C523.308 345.792 522.142 346.806 522.143 348.156L520.758 500.059C520.758 501.072 521.05 501.747 521.925 502.422C522.509 502.759 523.383 502.758 524.258 502.42L781.664 330.119C790.993 323.7 802.365 324.031 811.7 330.777L868.291 371.928C871.792 374.626 874.71 378 876.461 382.388L920.839 494.771C917.924 495.447 915.008 495.111 912.091 493.763C896.34 485.67 883.49 445.17 874.436 415.807C872.392 409.057 870.347 402.307 868.303 396.907C868.011 395.557 866.553 394.883 865.678 395.559C864.804 396.234 863.929 397.247 864.222 398.598L887.892 502.891C867.771 502.902 856.375 453.962 847.025 414.473C845.856 409.072 844.395 403.672 843.226 398.609C842.934 397.259 841.767 396.585 840.601 396.923C839.435 397.261 838.852 398.612 838.853 399.962L853.766 487.382C852.6 487.72 851.434 487.383 850.267 486.709C837.724 479.29 827.201 427.311 824.276 407.734C824.276 407.059 823.692 406.384 823.4 406.047C805.606 392.217 782.569 392.23 764.787 406.08C763.913 406.755 763.622 408.443 764.206 409.456C764.789 410.468 766.248 410.805 767.122 410.129C783.155 397.63 803.859 397.281 820.194 409.424C820.779 413.475 823.411 429.001 827.502 445.202C833.929 471.19 840.935 486.377 848.228 490.761C851.144 492.447 854.352 492.445 857.267 490.756C858.142 490.418 858.725 489.067 858.432 488.054L852.877 455.989C861.347 484.677 871.856 507.626 887.894 507.616Z" fill="#969A7E"/>
<path d="M685.654 176.583C695.569 176.577 705.191 174.209 714.52 168.802C730.845 159.342 743.085 142.457 748.323 121.187C753.562 99.918 751.802 77.3023 743.044 56.716C734.286 36.4673 719.698 20.9477 701.906 13.1938C684.114 5.43986 665.16 6.46321 648.835 15.9241C632.51 25.385 620.27 42.27 615.031 63.5393C609.793 84.8086 611.553 107.424 620.311 128.011C633.448 158.384 659.41 176.597 685.654 176.583ZM677.411 13.2075C684.993 13.2033 692.576 14.8868 700.159 17.9206C716.784 25.3376 730.788 39.8448 738.962 59.0812C747.136 78.3176 749.188 99.9204 743.949 119.839C739.001 139.758 727.636 155.293 712.476 164.415C680.7 182.662 641.033 165.468 623.809 125.646C615.635 106.409 613.584 84.8065 618.823 64.8874C623.771 44.9685 635.136 29.4343 650.295 20.3116C659.041 15.5808 668.08 13.2128 677.411 13.2075Z" fill="#969A7E"/>
<path d="M731.712 153.265C732.003 153.265 732.295 153.265 732.586 152.927C733.752 152.251 734.043 150.901 733.459 149.551L706.017 84.0794L723.509 73.9427C724.092 73.6048 724.674 72.9294 724.674 72.2543C724.674 71.5791 724.673 70.5664 724.09 70.2292C723.798 69.5543 713.293 55.3826 694.622 37.1648C680.035 22.9954 665.455 24.0163 655.833 27.0598C638.631 32.808 625.517 49.6935 622.025 63.5354C621.734 64.8858 622.317 66.2358 623.484 66.5727C624.651 66.9096 625.817 66.2338 626.108 64.8834C629.601 52.3916 641.258 37.1948 657.002 31.785C665.749 28.742 678.579 28.0597 691.708 40.8796C705.711 54.3742 715.048 66.1836 718.55 70.9074L701.641 80.7062C700.475 81.382 700.184 82.7324 700.768 84.0824L729.086 151.916C729.962 152.928 730.837 153.265 731.712 153.265Z" fill="#969A7E"/>
<path d="M699.625 136.067C701.083 136.066 702.541 135.728 703.998 135.052C710.12 131.335 711.865 121.208 707.486 111.421C703.399 101.634 695.232 96.9125 689.11 100.629C682.988 104.346 681.243 114.474 685.622 124.26C688.833 131.685 694.376 136.07 699.625 136.067ZM703.696 113.448C706.616 120.198 706.036 127.962 701.955 130.327C698.165 132.692 692.331 128.645 689.412 121.895C686.492 115.146 687.072 107.381 691.153 105.016C694.943 102.651 700.485 106.699 703.696 113.448Z" fill="#969A7E"/>
<path d="M633.401 67.58C646.231 67.5728 668.975 62.8341 684.123 31.77C684.706 30.4194 684.414 29.0693 683.247 28.3949C682.08 27.7204 680.914 28.0586 680.331 29.4092C660.23 70.603 626.4 62.183 624.941 61.5087C623.775 61.1718 622.609 62.1851 622.318 63.5355C622.027 64.8859 622.902 66.2357 624.069 66.5726C624.069 66.5726 627.569 67.5833 633.401 67.58Z" fill="#969A7E"/>
<path d="M652.063 62.8436C654.105 62.8424 656.437 62.166 658.478 61.1522C665.475 57.0975 668.386 47.3066 664.883 39.2071C661.38 31.1076 652.921 27.7367 645.925 31.7914C642.427 33.8187 640.095 37.1957 638.931 41.2471C637.766 45.2985 638.06 49.6866 639.812 53.7363C641.563 57.7861 644.481 60.4849 647.981 61.8332C649.147 62.8452 650.605 62.8444 652.063 62.8436ZM660.802 41.5723C663.137 46.972 661.099 54.0619 656.435 56.765C654.102 58.1166 651.478 58.4556 649.145 57.4442C646.811 56.4329 644.769 54.4087 643.602 51.7088C642.434 49.009 642.141 45.9711 643.014 43.2701C643.888 40.5692 645.636 38.2052 647.969 36.8537C652.633 33.813 658.466 36.1726 660.802 41.5723Z" fill="#969A7E"/>
<path d="M1950.91 730.484C1952.07 730.483 1953.24 729.47 1953.24 727.782L1953.13 504.991C1953.13 504.316 1952.84 503.641 1952.26 502.967C1951.67 502.629 1951.09 502.292 1950.51 502.292L1551.05 591.971C1511.1 598.407 1470.86 590.666 1434.69 569.757L1283.01 482.414C1265.21 466.559 1240.43 465.898 1221.77 480.424L1066.11 600.345C1065.23 601.021 1064.94 602.709 1065.53 603.721C1066.11 604.734 1067.57 605.07 1068.44 604.395L1224.11 485.148C1241.3 471.636 1263.76 472.636 1280.39 487.142L1280.68 487.479L1432.65 574.822C1469.69 596.067 1510.81 603.808 1551.63 597.372L1948.76 508.37L1948.86 728.122C1948.87 729.135 1949.74 730.484 1950.91 730.484Z" fill="#969A7E"/>
<path d="M1452.04 275.731C1452.62 275.731 1453.5 275.393 1453.79 274.718C1454.37 273.705 1454.08 272.017 1453.2 271.342L1221.87 91.2148C1204.08 77.3848 1181.04 77.3977 1163.26 91.2478L976.119 237.18C975.245 237.855 974.954 239.543 975.538 240.556C976.121 241.568 977.579 241.905 978.454 241.229L1165.6 95.2972C1181.92 82.4607 1202.92 82.4488 1219.25 95.267L1450.58 275.395C1451.17 275.732 1451.75 275.731 1452.04 275.731Z" fill="#969A7E"/>
<path d="M1802.51 196.545C1803.1 196.544 1803.39 196.207 1803.97 195.869C1804.85 194.856 1805.14 193.505 1804.26 192.155C1798.13 183.045 1788.22 177.987 1775.68 177.994L1738.64 178.015C1724.35 178.023 1721.43 166.21 1721.43 156.421L1721.41 121.652C1721.41 120.301 1720.54 118.952 1719.08 118.953C1717.62 118.953 1716.75 119.967 1716.75 121.654L1716.76 156.761C1716.77 173.639 1724.65 183.424 1738.35 183.416L1775.68 183.395C1783.26 183.391 1794.05 185.41 1800.76 195.533C1801.06 196.208 1801.93 196.545 1802.51 196.545Z" fill="#969A7E"/>
<path d="M1950.91 729.134C1952.07 729.133 1953.24 728.12 1953.24 726.432L1953.07 374.356C1953.05 336.886 1934.1 333.859 1916.31 333.869C1907.56 333.874 1902.6 334.214 1897.94 334.554C1893.86 334.894 1890.06 335.234 1883.36 335.238C1869.07 335.246 1866.15 323.433 1866.14 313.643L1866.1 233.979C1866.1 232.629 1865.23 231.279 1863.77 231.28C1862.31 231.281 1861.44 232.294 1861.44 233.982L1861.48 313.646C1861.48 330.524 1869.36 340.309 1883.07 340.301C1889.78 340.297 1893.57 339.958 1897.65 339.618C1902.31 339.278 1906.98 338.938 1915.73 338.933C1932.64 338.923 1948.1 341.615 1948.11 374.358L1948.28 726.772C1948.87 728.122 1949.74 729.134 1950.91 729.134Z" fill="#969A7E"/>
<path d="M1718.12 560.146C1719.29 560.146 1720.46 559.133 1720.46 557.445L1720.37 382.25C1720.36 347.482 1737.85 340.045 1752.72 340.037L1789.46 340.016C1803.17 340.009 1811.04 330.215 1811.03 313.337L1811.01 278.906C1811.01 277.555 1810.14 276.206 1808.68 276.206C1807.22 276.207 1806.35 277.22 1806.35 278.908L1806.36 313.339C1806.37 323.129 1803.46 334.945 1789.17 334.953L1752.13 334.974C1738.43 334.982 1715.39 341.071 1715.41 382.253L1715.5 557.448C1715.79 558.798 1716.96 560.147 1718.12 560.146Z" fill="#969A7E"/>
<path d="M621.833 266.409C622.708 266.409 623.291 266.071 623.583 265.058C624.165 263.708 623.873 262.358 622.706 261.683C588.869 238.748 567.56 193.864 567.536 144.58C567.502 71.6672 613.838 12.2303 670.702 12.1983C675.659 12.1955 680.616 12.5303 685.574 13.5402C686.741 13.8771 687.907 12.8637 688.198 11.5133C688.488 10.1629 687.613 8.81317 686.447 8.47626C681.197 7.46653 675.948 7.13193 670.699 7.13488C611.503 7.1682 563.126 68.9691 563.162 144.583C563.187 195.555 585.08 242.126 620.375 266.073C621.25 266.41 621.542 266.41 621.833 266.409Z" fill="#969A7E"/>
<path d="M1132.28 555.412C1132.87 555.412 1133.45 555.074 1134.03 554.399C1134.91 553.386 1134.61 551.698 1133.74 550.686C1129.95 546.975 1125.86 543.601 1121.49 539.891C1090.85 514.253 1070.15 509.201 1050.02 504.487C1029.61 499.773 1010.36 495.058 980.314 470.095C950.266 445.132 940.342 425.222 930.126 404.299C919.91 383.713 909.402 362.79 878.48 337.153C877.604 336.478 876.729 335.804 876.146 335.129C875.271 334.454 873.813 334.455 873.23 335.806C872.647 336.819 872.648 338.506 873.815 339.181C874.69 339.856 875.273 340.53 876.149 341.205C906.196 366.168 916.12 386.078 926.336 407.001C936.553 427.587 947.06 448.51 977.983 474.147C1008.91 499.784 1029.32 504.836 1049.44 509.551C1069.86 514.265 1089.11 518.98 1119.15 543.943C1123.24 547.316 1127.32 551.027 1131.12 554.4C1131.41 555.075 1131.7 555.413 1132.28 555.412Z" fill="#969A7E"/>
<path d="M1188.25 512.173C1188.84 512.173 1189.42 511.835 1189.71 511.497C1190.58 510.484 1190.58 508.796 1189.71 507.784C1183.29 500.699 1176 493.614 1167.54 486.53C1136.9 460.892 1116.2 455.841 1096.07 451.126C1075.66 446.412 1056.41 441.697 1026.36 416.734C996.317 391.771 986.393 371.861 976.176 350.938C965.96 330.352 955.452 309.429 924.53 283.792C893.899 258.155 873.192 253.103 853.069 248.389C832.654 243.674 813.406 238.959 783.359 213.996C753.311 189.034 743.387 168.786 733.463 149.213C732.879 147.863 731.421 147.526 730.546 148.202C729.38 148.878 729.089 150.565 729.673 151.578C739.597 171.488 750.105 192.411 780.736 218.049C811.367 243.686 832.074 248.738 852.197 253.452C872.611 258.167 891.86 262.882 921.907 287.844C951.955 312.807 961.879 332.718 972.095 353.641C982.311 374.226 992.819 395.149 1023.74 420.786C1054.37 446.424 1075.08 451.476 1095.2 456.19C1115.62 460.904 1134.87 465.619 1164.91 490.582C1173.37 497.666 1180.37 504.413 1186.5 511.499C1187.09 511.836 1187.67 512.173 1188.25 512.173Z" fill="#969A7E"/>
<path d="M444.73 670.233C445.897 670.232 447.063 669.219 447.062 667.531L446.911 353.261C446.882 292.838 477.203 280.331 502.865 280.317L595.888 280.264C618.05 280.252 630.581 264.379 630.568 237.037L630.521 138.469C630.52 137.119 629.645 135.769 628.187 135.77C626.729 135.771 625.854 136.784 625.855 138.472L625.902 237.04C625.911 254.255 620.672 275.187 595.593 275.201L502.571 275.253C480.117 275.266 442.213 285.414 442.246 353.264L442.396 667.534C442.688 668.884 443.564 670.233 444.73 670.233Z" fill="#969A7E"/>
<path d="M875.586 378.675C876.752 378.675 877.918 377.661 877.917 375.973L877.906 353.019C877.874 285.169 839.96 275.064 817.506 275.077L755.102 275.112C730.024 275.126 724.765 254.538 724.757 236.984L724.72 160.358C724.719 159.008 723.844 157.658 722.386 157.659C720.928 157.66 720.054 158.673 720.054 160.361L720.091 236.987C720.104 264.329 732.651 280.188 754.813 280.175L817.217 280.14C842.587 280.126 873.212 292.936 873.24 353.022L873.251 375.976C873.252 377.326 874.419 378.676 875.586 378.675Z" fill="#969A7E"/>
<path d="M1247.72 476.02C1248.31 476.02 1248.6 475.682 1249.18 475.345C1250.05 474.331 1250.35 472.981 1249.47 471.631C1240.13 457.796 1228.75 445.313 1213.88 432.832C1183.24 407.194 1162.54 402.142 1142.41 397.428C1122 392.714 1102.75 387.999 1072.7 363.036C1042.66 338.073 1032.73 318.163 1022.52 297.24C1012.3 276.654 1001.79 255.731 970.87 230.094C939.947 204.457 919.532 199.405 899.409 194.69C878.994 189.976 859.746 185.261 829.698 160.298C799.651 135.336 789.727 115.425 779.511 94.502C770.462 76.2788 760.83 57.3808 736.907 35.1152C736.907 35.1152 736.907 35.1152 736.616 34.7778C717.652 16.2226 695.194 6.44593 671.282 6.45939C670.116 6.46004 668.95 7.47338 668.951 9.16119C668.951 10.849 669.827 11.8612 671.285 11.8604C694.03 11.8476 715.614 21.2871 733.702 38.8302L733.993 39.1675C757.624 60.7582 766.381 78.644 775.721 97.5422C785.937 118.128 796.445 139.051 827.368 164.688C858.29 190.325 878.705 195.377 898.828 200.092C919.243 204.806 938.491 209.521 968.539 234.484C998.586 259.446 1008.22 279.357 1018.44 300.28C1028.65 320.866 1039.16 341.788 1070.08 367.426C1101 393.063 1121.42 398.115 1141.54 402.829C1161.96 407.544 1181.21 412.259 1211.25 437.221C1226.13 449.703 1237.22 461.511 1245.97 475.009C1246.56 475.684 1247.14 476.021 1247.72 476.02Z" fill="#969A7E"/>
<path d="M369.524 731.037C369.815 731.037 370.398 731.036 370.69 730.699L767.122 410.13C783.446 397.293 804.442 397.281 820.778 410.1C821.653 410.774 823.111 410.436 823.693 409.423C824.276 408.41 823.984 406.722 823.109 406.048C805.314 392.217 782.277 392.23 764.496 406.08L368.064 726.649C367.189 727.325 366.898 729.013 367.482 730.025C368.065 730.363 368.94 731.037 369.524 731.037Z" fill="#969A7E"/>
<path d="M1223.93 730.554C1224.52 730.554 1225.39 730.216 1225.68 729.541C1226.27 728.528 1225.97 726.84 1225.1 726.165L920.837 483.292C919.962 482.618 918.504 482.956 917.921 483.969C917.338 484.982 917.631 486.67 918.506 487.344L1222.77 729.542C1223.06 730.217 1223.35 730.555 1223.93 730.554Z" fill="#969A7E"/>
<path d="M1575.64 201.736C1580.31 201.733 1583.81 196.331 1583.8 189.242C1583.8 182.153 1580.3 176.754 1575.63 176.757C1570.97 176.759 1567.47 182.162 1567.47 189.251C1567.48 196.34 1570.98 201.739 1575.64 201.736ZM1575.64 181.82C1577.38 181.819 1579.43 184.856 1579.43 189.244C1579.43 193.632 1577.39 196.672 1575.64 196.673C1573.89 196.674 1571.85 193.637 1571.85 189.248C1571.85 184.86 1573.89 181.821 1575.64 181.82Z" fill="#969A7E"/>
<path d="M1573.29 149.416C1580.87 149.412 1589.62 147.381 1598.95 140.962C1600.12 140.287 1600.41 138.599 1599.82 137.586C1599.24 136.236 1597.78 135.9 1596.91 136.575C1571.54 154.143 1551.42 137.613 1550.54 136.601C1549.67 135.927 1548.21 135.927 1547.62 137.278C1547.04 138.291 1547.04 139.979 1548.21 140.653C1547.92 140.991 1558.42 149.424 1573.29 149.416Z" fill="#969A7E"/>
<path d="M1575.62 149.414C1580.87 149.411 1585.24 144.346 1585.24 138.269C1585.23 132.193 1580.86 127.132 1575.61 127.135C1570.36 127.138 1565.99 132.204 1565.99 138.28C1565.99 144.356 1570.37 149.417 1575.62 149.414ZM1575.61 132.536C1578.53 132.535 1580.86 135.234 1580.86 138.609C1580.87 141.985 1578.53 144.687 1575.62 144.688C1572.7 144.69 1570.37 141.991 1570.37 138.615C1570.36 134.902 1572.7 132.538 1575.61 132.536Z" fill="#969A7E"/>
<path d="M1619.09 183.484L1644.46 183.47C1658.17 183.462 1666.04 173.669 1666.03 156.79L1665.99 83.8772C1665.99 82.527 1665.12 81.1773 1663.66 81.1781C1662.2 81.1789 1661.33 82.1921 1661.33 83.8799L1661.36 156.793C1661.37 166.582 1658.46 178.399 1644.17 178.407L1618.8 178.421C1617.63 178.422 1616.47 179.435 1616.47 181.123C1616.47 182.811 1617.93 183.485 1619.09 183.484Z" fill="#969A7E"/>
</g>
<defs>
<clipPath id="clip0_503:1078">
<rect width="1952.89" height="730.483" fill="white" transform="matrix(-1 0.000562835 0.000478854 1 1952.89 0)"/>
</clipPath>
</defs>
</svg>
