<svg width="1920" height="340" viewBox="0 0 1920 340" fill="none" xmlns="http://www.w3.org/2000/svg">
<path d="M259 1.5323C117.401 -4.4676 -49.9994 36.3657 -116 57.5323L-116 339.032H2109.5L2003.5 45.5002H1978.5L1874 125L1806.5 96.501H1713.5C1585 111.469 1484 135.973 1288 96.501C1245.91 88.025 1144.29 11.032 988 11.032C789 11.032 724 100.502 637.5 88.0022C551 75.5022 435.998 9.03218 259 1.5323Z" fill="#2C3930"/>
<path d="M1611.19 1.53029C1725.91 -4.46908 1861.53 36.3606 1915 57.5254V339H112L197.876 45.4943H218.13L296.5 87.9927L360 57.5252L442.5 161C546.605 175.967 618.752 135.959 777.542 96.4907C811.64 88.0153 893.974 11.0291 1020.59 11.0291C1181.81 11.0291 1234.47 100.492 1304.55 87.9926C1374.63 75.4937 1467.8 9.02951 1611.19 1.53029Z" fill="#2C3930"/>
<path opacity="0.4" d="M-116 106.597C-49.9994 85.4307 117.401 44.5973 259 50.5972C435.998 58.0971 551 124.567 637.5 137.067C724 149.567 789 60.0969 988 60.0969M1915 106.59C1861.53 85.4256 1725.91 44.5959 1611.19 50.5952C1467.8 58.0945 1374.63 124.559 1304.55 137.058C1234.47 149.556 1181.81 60.0941 1020.59 60.0941" stroke="white" stroke-width="3"/>
<path opacity="0.4" d="M-116 168.597C-49.9994 147.431 117.401 106.597 259 112.597C435.998 120.097 551 186.567 637.5 199.067C724 211.567 789 122.097 988 122.097C1149.22 122.097 1234.47 211.556 1304.55 199.058C1374.63 186.559 1467.8 120.094 1611.19 112.595C1725.91 106.596 1861.53 147.426 1915 168.59" stroke="white" stroke-width="3"/>
</svg>
