<svg width="94" height="72" viewBox="0 0 94 72" fill="none" xmlns="http://www.w3.org/2000/svg">
<path d="M16.6599 64.5896C16.3905 64.3206 16.069 64.1094 15.7151 63.9689C15.334 63.8182 14.9272 63.7431 14.5173 63.7476C14.2776 63.7484 14.0384 63.7682 13.8018 63.8069C13.5522 63.8473 13.3084 63.9176 13.0757 64.0164C12.831 64.1212 12.6029 64.261 12.3984 64.4315C12.1744 64.6196 11.9852 64.8458 11.8397 65.0996C11.5889 64.6821 11.2308 64.3394 10.8026 64.1073C10.343 63.8617 9.82807 63.7379 9.307 63.7476C9.11087 63.7482 8.91515 63.7654 8.72193 63.799C8.51534 63.8345 8.31366 63.8941 8.12105 63.9768C7.68537 64.1618 7.31501 64.4731 7.05763 64.8703V63.9479H5.46582V71.5235H7.07213V67.3252C7.06702 67.032 7.11893 66.7407 7.22498 66.4674C7.31728 66.2321 7.45675 66.0182 7.6348 65.8388C7.80577 65.67 8.01057 65.5393 8.2357 65.4553C8.47026 65.367 8.71901 65.3223 8.96966 65.3236C9.20444 65.3103 9.43922 65.3495 9.65692 65.4384C9.87462 65.5273 10.0698 65.6637 10.2281 65.8375C10.5517 66.2567 10.711 66.7797 10.6761 67.3081V71.5248H12.2877V67.3266C12.2824 67.0334 12.3343 66.742 12.4406 66.4687C12.5327 66.2333 12.6722 66.0193 12.8504 65.8401C13.0214 65.6713 13.2261 65.5406 13.4513 65.4567C13.6863 65.3682 13.9355 65.3235 14.1866 65.3249C14.4213 65.3116 14.6561 65.3508 14.8738 65.4397C15.0915 65.5286 15.2866 65.665 15.445 65.8388C15.7685 66.258 15.9279 66.781 15.893 67.3094V71.5261H17.4994V66.7665C17.504 66.3504 17.4298 65.9374 17.2806 65.5489C17.1425 65.1896 16.9312 64.8628 16.6599 64.5896Z" fill="#E7E5DE"/>
<path d="M25.1329 64.8629C24.8686 64.525 24.5341 64.2485 24.1525 64.0525C23.7175 63.8395 23.2373 63.7351 22.7531 63.7482C22.2523 63.7431 21.7556 63.8399 21.2935 64.033C20.8313 64.226 20.4133 64.5111 20.0649 64.8709C19.7157 65.2341 19.4417 65.6626 19.2584 66.1319C18.8683 67.1636 18.8683 68.3023 19.2584 69.334C19.4418 69.8032 19.7158 70.2318 20.0649 70.5951C20.4133 70.9549 20.8313 71.24 21.2935 71.433C21.7556 71.626 22.2523 71.7229 22.7531 71.7178C23.2368 71.7308 23.7167 71.6277 24.1525 71.4173C24.5345 71.2237 24.8692 70.9484 25.1329 70.6108V71.5201H26.7853V63.9458H25.1329V64.8629ZM25.0696 68.6975C24.966 68.9813 24.8075 69.2419 24.6032 69.4644C24.4007 69.6818 24.1559 69.8554 23.8837 69.9744C23.5832 70.0984 23.2611 70.1616 22.9361 70.1602C22.6111 70.1588 22.2895 70.093 21.9901 69.9665C21.7173 69.8429 21.4736 69.6633 21.2746 69.4394C21.0757 69.2142 20.9226 68.9523 20.8239 68.6685C20.6129 68.059 20.6129 67.3963 20.8239 66.7868C20.9226 66.503 21.0757 66.2411 21.2746 66.0159C21.4734 65.7919 21.7172 65.6124 21.9901 65.4889C22.2895 65.3623 22.6111 65.2965 22.9361 65.2951C23.2611 65.2938 23.5832 65.3569 23.8837 65.481C24.156 65.5998 24.4009 65.7733 24.6032 65.9909C24.8075 66.2135 24.966 66.4741 25.0696 66.7579C25.2913 67.3818 25.2913 68.063 25.0696 68.687V68.6975Z" fill="#E7E5DE"/>
<path d="M34.3791 67.7204C33.8062 67.3171 33.1391 67.068 32.4421 66.9969L31.6593 66.8783C31.4836 66.8519 31.3202 66.8217 31.1691 66.7874C31.0321 66.761 30.8993 66.7166 30.7738 66.6556C30.6701 66.6031 30.5799 66.5274 30.5103 66.4343C30.4421 66.3372 30.4074 66.2207 30.4114 66.1022C30.4102 65.969 30.4443 65.8378 30.5103 65.7221C30.5763 65.6063 30.6717 65.5101 30.787 65.4433C31.1068 65.2598 31.4731 65.1732 31.8412 65.1942C32.0759 65.1941 32.31 65.2153 32.5409 65.2575C32.7612 65.2974 32.979 65.3502 33.1932 65.4156C33.3846 65.4734 33.5721 65.5434 33.7545 65.6251C33.9005 65.6901 34.043 65.7627 34.1815 65.8425L34.893 64.5538C34.4652 64.287 33.9984 64.0882 33.5094 63.9648C32.9595 63.8223 32.3934 63.7519 31.8254 63.7553C31.3846 63.7495 30.9453 63.8068 30.5208 63.9253C30.1658 64.0242 29.8321 64.1876 29.5365 64.4075C29.2709 64.6089 29.0568 64.8704 28.9119 65.1705C28.7634 65.4869 28.689 65.833 28.6944 66.1825C28.6857 66.4633 28.7404 66.7424 28.8545 66.9991C28.9685 67.2558 29.139 67.4833 29.3533 67.665C29.908 68.0907 30.5737 68.3474 31.2706 68.4043L32.0612 68.507C32.411 68.5371 32.7505 68.6408 33.0574 68.8114C33.1521 68.865 33.2312 68.9425 33.2867 69.0361C33.3422 69.1297 33.3722 69.2363 33.3737 69.3451C33.3722 69.4873 33.3306 69.6262 33.2537 69.7458C33.1768 69.8654 33.0676 69.9608 32.9388 70.0211C32.5369 70.2108 32.0938 70.2965 31.6501 70.2702C31.3708 70.2726 31.0917 70.2514 30.816 70.2069C30.5877 70.1688 30.3629 70.112 30.1439 70.0369C29.9549 69.9722 29.7723 69.8901 29.5984 69.7918C29.443 69.7031 29.2938 69.604 29.1517 69.4953L28.3848 70.7366C28.6505 70.9374 28.9399 71.1048 29.2466 71.2348C29.5335 71.3567 29.8296 71.4558 30.1321 71.5312C30.4022 71.5991 30.6771 71.6467 30.9543 71.6736C31.2126 71.6973 31.4393 71.7091 31.6343 71.7091C32.1266 71.7155 32.6174 71.6543 33.093 71.5273C33.4823 71.4252 33.8495 71.2523 34.1762 71.0173C34.4576 70.8117 34.6876 70.5438 34.8482 70.2346C35.0052 69.9248 35.0852 69.5817 35.0815 69.2344C35.0946 68.9442 35.0376 68.6551 34.9153 68.3915C34.7931 68.128 34.6092 67.8978 34.3791 67.7204Z" fill="#E7E5DE"/>
<path d="M49.8509 64.8503C49.5376 64.4999 49.1518 64.2221 48.7202 64.036C48.2624 63.8401 47.7687 63.7419 47.2707 63.7474C46.7467 63.7408 46.2265 63.8389 45.7409 64.036C45.2926 64.2208 44.8884 64.4983 44.5549 64.8503C44.2143 65.2142 43.9508 65.6432 43.7801 66.1114C43.5905 66.6305 43.4968 67.1796 43.5033 67.7322C43.4959 68.2907 43.5924 68.8456 43.788 69.3688C43.9644 69.8385 44.2364 70.2665 44.5865 70.6259C44.9342 70.9774 45.3516 71.2521 45.812 71.4324C46.3108 71.6267 46.8422 71.7234 47.3775 71.717C47.9331 71.7197 48.486 71.6398 49.0181 71.4798C49.5617 71.308 50.0638 71.0253 50.4926 70.6496L49.6703 69.4716C49.3557 69.7239 49.0018 69.9228 48.6227 70.0606C48.2573 70.1973 47.8705 70.2682 47.4803 70.2701C47.218 70.2711 46.957 70.2338 46.7054 70.1594C46.4619 70.0878 46.2339 69.9712 46.0334 69.8155C45.8255 69.6512 45.6511 69.4486 45.5195 69.2186C45.3673 68.9472 45.2681 68.6494 45.2269 68.3409H50.8234C50.8339 68.2461 50.8418 68.146 50.8471 68.0405C50.8524 67.9351 50.855 67.8297 50.855 67.7243C50.8622 67.1741 50.773 66.6268 50.5914 66.1074C50.428 65.6445 50.1765 65.2177 49.8509 64.8503ZM45.2296 67.0839C45.268 66.8231 45.3425 66.569 45.451 66.3288C45.5504 66.1085 45.6883 65.9077 45.8581 65.7358C46.027 65.5682 46.2289 65.4376 46.4511 65.3523C46.704 65.2591 46.9723 65.2145 47.2417 65.2206C47.4785 65.2113 47.7147 65.2499 47.9362 65.3341C48.1576 65.4184 48.3597 65.5465 48.5305 65.7108C48.886 66.0879 49.1081 66.5712 49.163 67.0865L45.2296 67.0839Z" fill="#E7E5DE"/>
<path d="M71.8028 64.8629C71.5386 64.5249 71.2041 64.2484 70.8224 64.0525C70.3874 63.8395 69.9072 63.7351 69.423 63.7482C68.9222 63.743 68.4256 63.8399 67.9634 64.033C67.5013 64.226 67.0832 64.5111 66.7348 64.8709C66.3856 65.2341 66.1116 65.6626 65.9284 66.1319C65.5382 67.1636 65.5382 68.3022 65.9284 69.334C66.1117 69.8032 66.3858 70.2318 66.7348 70.5951C67.0832 70.9549 67.5013 71.24 67.9634 71.433C68.4256 71.626 68.9222 71.7229 69.423 71.7178C69.9068 71.7308 70.3866 71.6277 70.8224 71.4173C71.2045 71.2238 71.5393 70.9484 71.8028 70.6108V71.5201H73.4552V63.9458H71.8028V64.8629ZM71.7396 68.6975C71.6359 68.9813 71.4774 69.2418 71.2731 69.4644C71.0706 69.6818 70.8258 69.8554 70.5536 69.9744C70.2531 70.0984 69.931 70.1616 69.606 70.1602C69.281 70.1588 68.9594 70.093 68.66 69.9665C68.3872 69.8429 68.1434 69.6633 67.9445 69.4394C67.7456 69.2142 67.5925 68.9523 67.4938 68.6685C67.2829 68.059 67.2829 67.3963 67.4938 66.7868C67.5925 66.503 67.7455 66.2411 67.9445 66.0159C68.1433 65.7919 68.3871 65.6124 68.66 65.4889C68.9594 65.3623 69.281 65.2965 69.606 65.2951C69.9311 65.2938 70.2532 65.3569 70.5536 65.481C70.8259 65.5998 71.0708 65.7733 71.2731 65.9909C71.4774 66.2134 71.6359 66.4741 71.7396 66.7579C71.9608 67.3819 71.9608 68.063 71.7396 68.687V68.6975Z" fill="#E7E5DE"/>
<path d="M41.4663 70.0097C41.2141 70.1073 40.9462 70.1582 40.6757 70.1599C40.5155 70.1613 40.3562 70.1346 40.2053 70.0808C40.0609 70.0289 39.9308 69.9436 39.8257 69.8318C39.7074 69.7062 39.6175 69.5565 39.5622 69.393C39.4943 69.1838 39.4622 68.9646 39.4673 68.7447V65.4503H42.1212V63.9481H39.4673V61.6553H37.807V63.9481H36.2969V65.4503H37.807V68.7789C37.773 69.1788 37.8187 69.5815 37.9415 69.9636C38.0643 70.3456 38.2618 70.6995 38.5225 71.0046C38.791 71.253 39.107 71.4444 39.4515 71.5674C39.7959 71.6903 40.1617 71.7423 40.5268 71.7201C40.9677 71.7268 41.4059 71.6518 41.8195 71.4988C42.0626 71.4053 42.2987 71.2943 42.5258 71.1667L41.9605 69.7831C41.8007 69.869 41.6357 69.9447 41.4663 70.0097Z" fill="#E7E5DE"/>
<path d="M56.3828 63.7484C55.9505 63.7421 55.5218 63.8284 55.1256 64.0014C54.738 64.23 54.4145 64.5527 54.1848 64.9396V63.9461H52.6865V71.523H54.2032V67.3563C54.1977 67.0636 54.2423 66.7722 54.335 66.4945C54.4146 66.2582 54.541 66.0405 54.7066 65.8541C54.8638 65.6808 55.0585 65.5455 55.2759 65.4587C55.5075 65.3681 55.7545 65.3234 56.0033 65.327C56.2212 65.3288 56.4384 65.3527 56.6516 65.3982C56.7641 65.4209 56.875 65.4509 56.9836 65.4878L57.4725 63.9065C57.3397 63.8634 57.2041 63.8295 57.0667 63.8051C56.8407 63.7672 56.6119 63.7482 56.3828 63.7484Z" fill="#E7E5DE"/>
<path d="M79.3509 63.7484C78.9186 63.7421 78.4899 63.8284 78.0937 64.0014C77.7061 64.2298 77.3824 64.5526 77.1529 64.9396V63.9461H75.6533V71.523H77.1687V67.3563C77.1632 67.0636 77.2078 66.7722 77.3005 66.4945C77.3802 66.2583 77.5066 66.0406 77.6721 65.8541C77.8294 65.6809 78.024 65.5456 78.2413 65.4587C78.473 65.3681 78.72 65.3234 78.9687 65.327C79.1867 65.3288 79.4039 65.3527 79.6171 65.3982C79.7295 65.421 79.8404 65.4509 79.9491 65.4878L80.438 63.9065C80.3052 63.8633 80.1696 63.8295 80.0321 63.8051C79.807 63.7673 79.5791 63.7483 79.3509 63.7484Z" fill="#E7E5DE"/>
<path d="M87.0704 60.8672V64.8626C86.8061 64.5247 86.4716 64.2481 86.09 64.0521C85.6549 63.8391 85.1748 63.7348 84.6906 63.7478C84.1898 63.7427 83.6931 63.8396 83.231 64.0326C82.7688 64.2256 82.3508 64.5107 82.0024 64.8705C81.6531 65.2336 81.379 65.6621 81.1959 66.1315C80.8058 67.1632 80.8058 68.302 81.1959 69.3337C81.3792 69.803 81.6533 70.2315 82.0024 70.5947C82.3508 70.9545 82.7688 71.2396 83.231 71.4326C83.6931 71.6256 84.1898 71.7225 84.6906 71.7174C85.1743 71.7304 85.6542 71.6274 86.09 71.417C86.472 71.2234 86.8068 70.9481 87.0704 70.6106V71.5198H88.7228V60.8686L87.0704 60.8672ZM87.0071 68.6972C86.9034 68.9809 86.7449 69.2416 86.5407 69.4641C86.3383 69.6816 86.0934 69.8551 85.8212 69.974C85.5207 70.098 85.1986 70.1612 84.8736 70.1598C84.5485 70.1585 84.227 70.0926 83.9276 69.9662C83.6548 69.8425 83.4111 69.6629 83.2121 69.439C83.0132 69.2138 82.8601 68.952 82.7614 68.6682C82.5506 68.0587 82.5506 67.396 82.7614 66.7864C82.8601 66.5026 83.0132 66.2408 83.2121 66.0156C83.411 65.7917 83.6548 65.6121 83.9276 65.4885C84.227 65.3619 84.5485 65.2959 84.8736 65.2946C85.1986 65.2932 85.5207 65.3565 85.8212 65.4806C86.0935 65.5994 86.3384 65.773 86.5407 65.9905C86.7449 66.2131 86.9034 66.4737 87.0071 66.7575C87.2288 67.3814 87.2288 68.0627 87.0071 68.6866V68.6972Z" fill="#E7E5DE"/>
<path d="M60.3379 65.9808C60.5516 65.7652 60.8072 65.5957 61.089 65.4827C61.3879 65.3623 61.7076 65.302 62.0298 65.3049C62.3825 65.3018 62.7329 65.362 63.0643 65.4827C63.3591 65.5902 63.631 65.7525 63.8655 65.9611L64.6561 64.6433C64.3502 64.4002 64.0106 64.2027 63.648 64.0569C62.603 63.6503 61.4435 63.6503 60.3985 64.0569C59.9177 64.2484 59.4797 64.5332 59.1097 64.895C58.7459 65.255 58.457 65.6837 58.2598 66.1561C57.8483 67.1701 57.8483 68.3046 58.2598 69.3186C58.4569 69.791 58.7458 70.2197 59.1097 70.5797C59.4797 70.9415 59.9178 71.2263 60.3985 71.4178C61.4437 71.8235 62.6028 71.8235 63.648 71.4178C64.0106 71.272 64.3501 71.0745 64.6561 70.8314L63.8655 69.5137C63.6309 69.7222 63.3591 69.8844 63.0643 69.992C62.7329 70.1127 62.3825 70.1729 62.0298 70.1699C61.7076 70.1728 61.3879 70.1123 61.089 69.992C60.8072 69.879 60.5516 69.7095 60.3379 69.4939C60.1225 69.2739 59.9532 69.0132 59.8398 68.727C59.5971 68.0932 59.5971 67.3921 59.8398 66.7583C59.9521 66.4684 60.1215 66.204 60.3379 65.9808Z" fill="#E7E5DE"/>
<path d="M92.2037 70.417C92.3099 70.4162 92.4152 70.4368 92.5133 70.4776C92.6069 70.5166 92.6923 70.573 92.765 70.6437C92.8365 70.7138 92.8937 70.797 92.9337 70.8887C92.9748 70.9833 92.996 71.0854 92.996 71.1886C92.996 71.2917 92.9748 71.3937 92.9337 71.4883C92.8936 71.5804 92.8364 71.6641 92.765 71.7348C92.6924 71.8055 92.607 71.8618 92.5133 71.9008C92.4153 71.9418 92.3099 71.9625 92.2037 71.9614C92.0957 71.9626 91.9886 71.9419 91.8887 71.9008C91.7945 71.8622 91.7086 71.8059 91.6357 71.7348C91.5641 71.6643 91.5068 71.5806 91.4671 71.4883C91.4269 71.3935 91.4062 71.2916 91.4062 71.1886C91.4062 71.0856 91.4269 70.9836 91.4671 70.8887C91.5067 70.7968 91.564 70.7136 91.6357 70.6437C91.7086 70.5726 91.7945 70.5161 91.8887 70.4776C91.9886 70.4366 92.0957 70.4161 92.2037 70.417ZM92.2037 71.7479C92.2779 71.7485 92.3515 71.7336 92.4198 71.7044C92.5527 71.6479 92.6583 71.5415 92.7136 71.408C92.7713 71.2683 92.7713 71.1114 92.7136 70.9717C92.6865 70.9058 92.6466 70.8458 92.5963 70.7952C92.5456 70.7448 92.4856 70.7045 92.4198 70.6766C92.3515 70.6474 92.2779 70.6326 92.2037 70.6331C92.1277 70.6323 92.0523 70.6471 91.9823 70.6766C91.9161 70.7046 91.8558 70.7449 91.8044 70.7952C91.7536 70.8456 91.7133 70.9056 91.6858 70.9717C91.6286 71.1115 91.6286 71.2682 91.6858 71.408C91.7134 71.4745 91.7536 71.5348 91.8044 71.5858C91.8555 71.6368 91.9159 71.6775 91.9823 71.7057C92.0529 71.7325 92.1282 71.7446 92.2037 71.7413V71.7479ZM92.2485 70.8466C92.3253 70.8411 92.4016 70.8636 92.4633 70.9098C92.4874 70.9303 92.5066 70.956 92.5194 70.985C92.5322 71.014 92.5382 71.0455 92.5371 71.0772C92.5375 71.1263 92.5185 71.1737 92.4843 71.209C92.4429 71.2486 92.3897 71.2735 92.3328 71.2801L92.5463 71.5265H92.3157L92.1246 71.2881H92.1022V71.5265H91.9098V70.8426L92.2485 70.8466ZM92.1009 71.0126V71.1444H92.2511C92.2747 71.1458 92.2982 71.1412 92.3196 71.1312C92.3278 71.1262 92.3344 71.119 92.3387 71.1103C92.3429 71.1017 92.3445 71.092 92.3434 71.0825C92.3439 71.0732 92.3421 71.0639 92.3379 71.0555C92.3337 71.0472 92.3274 71.0401 92.3196 71.035C92.2986 71.0237 92.275 71.0182 92.2511 71.0192L92.1009 71.0126Z" fill="#E7E5DE"/>
<path d="M36.2049 28.5434C36.2019 24.2363 37.1757 19.9846 39.053 16.1081C40.9303 12.2317 43.6622 8.83136 47.0432 6.16305C42.8373 2.83378 37.7784 0.757048 32.4464 0.170925C27.1145 -0.415199 21.7252 0.513002 16.8966 2.84914C12.0679 5.18527 7.99523 8.8348 5.14547 13.3793C2.2957 17.9238 0.78418 23.1793 0.78418 28.5434C0.78418 33.9075 2.2957 39.1631 5.14547 43.7075C7.99523 48.252 12.0679 51.9015 16.8966 54.2377C21.7252 56.5738 27.1145 57.502 32.4464 56.9159C37.7784 56.3298 42.8373 54.2531 47.0432 50.9238C43.6621 48.2555 40.9301 44.8552 39.0528 40.9787C37.1755 37.1023 36.2018 32.8505 36.2049 28.5434Z" fill="#E7E5DE"/>
<path opacity="0.45" d="M47.0434 50.9238C53.0293 50.9238 57.8818 40.9038 57.8818 28.5434C57.8818 16.1831 53.0293 6.16309 47.0434 6.16309C41.0576 6.16309 36.2051 16.1831 36.2051 28.5434C36.2051 40.9038 41.0576 50.9238 47.0434 50.9238Z" fill="#E7E5DE"/>
<path d="M91.3549 43.9831V43.1477H91.0176V42.917H91.94V43.1463H91.6027V43.9818L91.3549 43.9831ZM93.1444 43.9831V43.2439L92.9046 43.8816H92.6411L92.4012 43.2464V43.9844H92.1522V42.917H92.5106L92.7741 43.5996L93.0377 42.917H93.3948V43.9831H93.1444Z" fill="#E7E5DE"/>
<path d="M64.748 2.02139e-05C58.3191 -0.00764516 52.0775 2.165 47.043 6.16305C50.4219 8.83326 53.1524 12.2339 55.0296 16.1099C56.9068 19.986 57.882 24.2367 57.882 28.5434C57.882 32.8501 56.9068 37.1008 55.0296 40.9769C53.1524 44.8529 50.4219 48.2536 47.043 50.9238C50.6141 53.7491 54.8094 55.6789 59.2786 56.552C63.7477 57.4251 68.3608 57.2162 72.7327 55.9427C77.1046 54.6693 81.1084 52.3682 84.4096 49.2318C87.7107 46.0953 90.2136 42.2145 91.709 37.9134C93.2043 33.6124 93.6489 29.0159 93.0055 24.508C92.362 20.0001 90.6493 15.7116 88.0104 12.0006C85.3715 8.28963 81.8829 5.26396 77.8361 3.17628C73.7892 1.0886 69.3016 -0.0004647 64.748 2.02139e-05Z" fill="#E7E5DE"/>
</svg>
