<svg width="90" height="30" viewBox="0 0 90 30" fill="none" xmlns="http://www.w3.org/2000/svg">
<path d="M34.2073 0.873149L22.4492 28.9277H14.7787L8.99255 6.53817C8.94045 6.014 8.75443 5.51203 8.45236 5.0805C8.15028 4.64896 7.74231 4.30222 7.26763 4.07386C4.98985 2.9832 2.58485 2.18108 0.108398 1.68611L0.27971 0.873149H12.6295C13.4369 0.871657 14.2182 1.15908 14.8321 1.68354C15.446 2.208 15.8519 2.93478 15.9765 3.73252L19.0324 19.9671L26.5856 0.873149H34.2073ZM64.2661 19.767C64.2991 12.3639 54.0287 11.9552 54.0985 8.64635C54.1209 7.64092 55.0789 6.57098 57.1767 6.29689C59.6312 6.06378 62.1032 6.49736 64.332 7.55156L65.6076 1.60311C63.4361 0.787987 61.1367 0.366943 58.8173 0.359375C51.6449 0.359375 46.5954 4.17271 46.5545 9.63207C46.5071 13.6722 50.1585 15.9242 52.9086 17.2669C55.7351 18.6413 56.6826 19.5242 56.672 20.7537C56.651 22.6367 54.4174 23.4672 52.3235 23.5001C49.7285 23.5562 47.1624 22.9457 44.8704 21.7275L43.5527 27.8747C46.1252 28.8737 48.8629 29.3794 51.6225 29.3652C59.2469 29.3652 64.2332 25.6006 64.2569 19.767H64.2661ZM83.1993 28.9264H89.9118L84.0532 0.871862H77.8599C77.1982 0.865798 76.5499 1.05875 75.9992 1.42553C75.4484 1.7923 75.0206 2.31603 74.7711 2.92889L63.8814 28.9251H71.5005L73.0146 24.7332H82.3243L83.1993 28.9264ZM75.1005 18.9868L78.922 8.45397L81.1213 18.9868H75.1005ZM44.5673 0.873149L38.5664 28.9277H31.3083L37.3119 0.873149H44.5673Z" fill="#E7E5DE"/>
</svg>
