<svg width="1543" height="545" viewBox="0 0 1543 545" fill="none" xmlns="http://www.w3.org/2000/svg">
<g opacity="0.13" clip-path="url(#clip0)">
<mask id="mask0" style="mask-type:alpha" maskUnits="userSpaceOnUse" x="-88" y="-113" width="1829" height="550">
<rect x="-87.5879" y="-112.213" width="1827.62" height="548.985" fill="#C4C4C4"/>
</mask>
<g mask="url(#mask0)">
<path d="M973.807 274.856C933.069 274.856 912.544 267.17 892.642 259.769C873.05 252.652 852.837 244.966 813.031 244.966C773.226 244.966 753.013 252.367 733.421 259.769C713.518 267.17 692.683 274.856 652.256 274.856C611.829 274.856 590.993 267.17 571.09 259.769C558.962 255.214 546.212 250.659 528.797 247.813C527.553 247.528 526.62 246.39 526.931 245.251C527.242 244.112 528.486 243.258 529.73 243.543C547.456 246.39 560.206 251.229 572.956 255.783C592.548 262.9 612.761 270.586 652.567 270.586C692.372 270.586 712.585 263.185 732.177 255.783C752.08 248.382 772.915 240.696 813.342 240.696C854.081 240.696 874.605 248.382 894.508 255.783C914.099 262.9 934.313 270.586 974.118 270.586C1013.92 270.586 1034.14 263.185 1053.73 255.783C1073.63 248.382 1094.47 240.696 1134.89 240.696C1175.32 240.696 1196.16 248.382 1216.06 255.783L1216.99 256.068C1218.24 256.637 1218.86 257.776 1218.24 258.915C1217.61 260.053 1216.37 260.623 1215.13 260.053L1214.19 259.769C1194.6 252.652 1174.39 244.966 1134.58 244.966C1094.78 244.966 1074.56 252.367 1054.97 259.769C1035.07 267.17 1014.55 274.856 973.807 274.856Z" fill="#99A392"/>
<path d="M1267.99 206.822C1236.27 206.822 1212.02 197.997 1190.56 190.311C1171.9 183.479 1154.49 177.217 1134.58 177.217C1094.78 177.217 1074.56 184.618 1054.97 192.019C1035.07 199.42 1014.23 207.106 973.807 207.106C933.069 207.106 912.544 199.42 892.641 192.019C873.05 184.903 852.836 177.217 813.031 177.217C773.226 177.217 753.012 184.618 733.421 192.019C713.518 199.42 692.682 207.106 652.255 207.106C631.731 207.106 614.627 205.114 598.767 201.128C597.523 200.844 596.901 199.705 597.212 198.566C597.523 197.428 598.767 196.858 600.011 197.143C615.56 201.128 632.042 202.836 652.255 202.836C692.06 202.836 712.274 195.435 731.866 188.034C751.768 180.633 772.604 172.947 813.031 172.947C853.769 172.947 874.294 180.633 894.196 188.034C913.788 195.15 934.002 202.836 973.807 202.836C1013.61 202.836 1033.83 195.435 1053.42 188.034C1073.32 180.633 1094.16 172.947 1134.58 172.947C1155.42 172.947 1173.45 179.494 1192.42 186.326C1214.5 194.296 1237.21 202.552 1267.99 202.552C1316.82 202.552 1335.47 176.932 1354.76 149.605C1357.55 145.619 1360.66 141.349 1363.77 137.08C1364.4 136.226 1365.95 135.941 1366.88 136.51C1367.82 137.08 1368.13 138.503 1367.51 139.357C1364.4 143.342 1361.29 147.612 1358.49 151.882C1338.58 180.348 1319.61 206.822 1267.99 206.822Z" fill="#99A392"/>
<path d="M892.644 540.161C892.333 540.161 891.711 540.161 891.4 539.876C850.04 515.964 841.332 469.565 841.332 458.463C841.332 410.64 878.339 394.129 908.193 381.035C929.65 371.641 946.443 364.24 945.821 348.584C945.51 344.883 944.266 342.321 941.467 340.044C926.54 328.657 872.43 329.227 776.649 341.752C739.642 346.591 713.831 336.343 710.721 324.103C708.856 316.986 715.075 310.724 726.892 307.308C808.68 283.681 850.973 261.193 849.107 252.083C848.796 250.091 844.131 243.544 799.972 245.252C798.728 245.252 797.484 244.398 797.484 243.259C797.484 242.12 798.417 240.982 799.661 240.982C845.997 239.274 852.527 246.106 853.46 251.229C856.57 268.024 787.844 294.213 728.136 311.293C718.496 314.14 713.831 318.409 715.075 322.964C717.252 332.073 739.642 342.036 775.716 337.197C905.394 320.117 934.004 328.657 944.266 336.343C948.309 339.474 950.175 343.175 950.486 348.014C951.419 366.517 932.449 374.772 910.369 384.451C880.205 397.83 845.997 412.917 845.997 457.894C845.997 468.426 854.082 512.833 893.888 535.606C894.821 536.175 895.443 537.599 894.51 538.453C894.199 539.876 893.577 540.161 892.644 540.161Z" fill="#99A392"/>
<path d="M1268 143.343C1236.28 143.343 1212.02 134.518 1190.56 126.833C1171.91 120.001 1154.49 113.738 1134.59 113.738C1094.78 113.738 1074.57 121.139 1054.98 128.541C1035.08 135.942 1014.24 143.628 973.813 143.628C933.075 143.628 912.55 135.942 892.647 128.541C873.056 121.424 852.842 113.738 813.037 113.738C773.232 113.738 753.018 121.139 733.427 128.541C713.524 135.942 692.689 143.628 652.261 143.628C645.731 143.628 639.511 143.343 633.603 143.058C632.359 143.058 631.426 141.92 631.426 140.781C631.426 139.642 632.67 138.788 633.914 138.788C639.511 139.073 645.731 139.358 652.261 139.358C692.067 139.358 712.28 131.957 731.872 124.555C751.774 117.154 772.61 109.468 813.037 109.468C853.775 109.468 874.3 117.154 894.202 124.555C913.794 131.672 934.008 139.358 973.813 139.358C1013.62 139.358 1033.83 131.957 1053.42 124.555C1073.33 117.154 1094.16 109.468 1134.59 109.468C1155.42 109.468 1173.46 116.015 1192.43 122.847C1214.51 130.818 1237.21 139.073 1268 139.073C1316.51 139.073 1328.33 113.454 1340.46 86.4107C1353.83 57.0905 1369.07 23.7852 1435.93 23.7852C1437.17 23.7852 1438.41 24.6391 1438.41 26.0624C1438.41 27.4858 1437.48 28.3397 1435.93 28.3397C1372.18 28.3397 1358.18 58.7985 1344.81 88.4033C1332.68 115.161 1319.93 143.343 1268 143.343Z" fill="#99A392"/>
<path d="M1202.69 420.318C1201.45 420.318 1200.2 419.464 1200.2 418.04V302.468C1200.2 245.251 1240.63 236.711 1264.57 236.711H1331.12C1357.87 236.711 1363.46 219.347 1363.46 204.544V109.183C1363.46 108.044 1364.4 106.906 1365.95 106.906C1367.51 106.906 1368.44 107.759 1368.44 109.183V204.829C1368.44 227.887 1355.07 241.266 1331.43 241.266H1264.88C1237.83 241.266 1205.18 252.083 1205.18 302.753V418.325C1204.87 419.179 1203.93 420.318 1202.69 420.318Z" fill="#99A392"/>
<path d="M1622.52 545C1621.27 545 1620.03 544.146 1620.03 542.723V302.469C1620.03 251.514 1587.69 240.982 1560.32 240.982H1500.61C1476.98 240.982 1463.61 227.603 1463.61 204.545V158.715C1463.61 157.576 1464.54 156.437 1466.09 156.437C1467.65 156.437 1468.58 157.291 1468.58 158.715V204.545C1468.58 219.063 1474.18 236.712 1500.92 236.712H1560.63C1584.58 236.712 1625 245.252 1625 302.469V542.723C1625 544.146 1623.76 545 1622.52 545Z" fill="#99A392"/>
<path d="M1435.62 167.824C1395.19 167.824 1362.54 135.372 1362.54 95.8045C1362.54 56.2366 1395.19 23.7852 1435.62 23.7852C1476.04 23.7852 1508.7 56.2366 1508.7 95.8045C1508.7 135.372 1476.04 167.824 1435.62 167.824ZM1435.62 28.0551C1397.68 28.0551 1367.2 58.5139 1367.2 95.8045C1367.2 133.095 1397.99 163.554 1435.62 163.554C1473.25 163.554 1504.03 133.095 1504.03 95.8045C1504.03 58.5139 1473.25 28.0551 1435.62 28.0551Z" fill="#99A392"/>
<path d="M1569.65 457.324H1153.25C1152.32 457.324 1151.38 456.755 1151.07 455.901C1150.76 455.047 1151.07 454.193 1151.69 453.623L1215.13 405.8C1241.57 388.436 1259.91 386.159 1287.59 397.26L1302.83 403.523C1305.94 404.662 1308.74 406.085 1311.22 407.224C1324.6 413.201 1334.55 417.187 1362.23 414.055C1411.05 408.362 1502.17 394.129 1522.07 390.998C1522.38 390.998 1522.69 390.998 1523 390.998C1528.6 390.429 1533.57 388.721 1533.57 381.604V307.592C1533.57 306.453 1534.51 305.315 1536.06 305.315C1537.62 305.315 1538.55 306.169 1538.55 307.592V381.604C1538.55 393.56 1527.67 394.983 1523.93 395.268C1523.62 395.268 1523.31 395.268 1523 395.268C1502.79 398.684 1411.67 412.917 1362.85 418.61C1333.93 422.026 1323.66 417.471 1309.36 411.209C1306.87 410.07 1304.07 408.932 1300.96 407.793L1285.72 401.53C1259.6 390.998 1243.12 392.991 1217.93 409.501L1159.47 453.339H1569.34C1597.32 453.339 1620.03 432.558 1620.03 406.939V388.721C1620.03 387.582 1620.96 386.443 1622.51 386.443C1624.07 386.443 1625 387.297 1625 388.721V406.939C1625 434.551 1600.12 457.324 1569.65 457.324Z" fill="#99A392"/>
<path d="M1425.35 409.786C1424.11 409.786 1422.86 408.932 1422.86 407.508V317.555C1422.86 316.417 1423.8 315.278 1425.35 315.278C1426.91 315.278 1427.84 316.132 1427.84 317.555V407.508C1427.53 408.932 1426.6 409.786 1425.35 409.786Z" fill="#99A392"/>
<path d="M1360.67 418.326C1359.43 418.326 1358.19 417.472 1358.19 416.049V303.892C1358.19 302.753 1359.12 301.615 1360.67 301.615C1362.23 301.615 1363.16 302.469 1363.16 303.892V416.049C1363.16 417.187 1361.92 418.326 1360.67 418.326Z" fill="#99A392"/>
<path d="M1377.46 416.333C1376.22 416.333 1374.98 415.479 1374.98 414.056V342.606C1374.98 338.336 1377.15 334.351 1380.57 331.789C1384.31 329.227 1388.97 328.088 1393.32 328.942C1400.48 330.366 1405.14 336.059 1405.14 342.606V410.925C1405.14 412.063 1404.21 413.202 1402.65 413.202C1401.1 413.202 1400.17 412.348 1400.17 410.925V342.606C1400.17 338.051 1396.74 334.066 1391.77 333.212C1388.66 332.643 1385.24 333.212 1382.75 335.205C1380.26 336.913 1378.71 339.759 1378.71 342.891V414.625C1379.95 415.479 1378.71 416.333 1377.46 416.333Z" fill="#99A392"/>
<path d="M1425.35 320.117C1425.04 320.117 1425.04 320.117 1424.73 320.117L1360.36 306.169C1359.11 305.884 1358.49 305.03 1358.49 303.892C1358.49 302.753 1359.43 301.899 1360.67 301.899L1471.69 291.082C1472 291.082 1472.31 291.082 1472.62 291.082L1536.99 305.03C1538.24 305.315 1538.86 306.169 1538.86 307.308C1538.86 308.446 1537.93 309.3 1536.68 309.3L1425.35 320.117ZM1374.66 304.746L1425.35 315.847L1522.38 306.454L1471.69 295.352L1374.66 304.746Z" fill="#99A392"/>
<path d="M420.58 166.116H343.458C319.823 166.116 306.451 152.737 306.451 129.679V80.4327C306.451 79.294 307.384 78.1554 308.939 78.1554C310.494 78.1554 311.427 79.0094 311.427 80.4327V129.964C311.427 144.482 317.024 162.131 343.769 162.131H420.891C422.135 162.131 423.379 162.984 423.379 164.408C423.379 165.831 421.824 166.116 420.58 166.116Z" fill="#99A392"/>
<path d="M-18.5219 241.266C-19.7658 241.266 -21.0098 240.412 -21.0098 238.989V227.602C-21.0098 170.385 19.4174 161.845 43.3628 161.845H173.663C200.407 161.845 206.005 144.481 206.005 129.679V16.6679C206.005 15.5293 206.938 14.3906 208.492 14.3906C210.047 14.3906 210.98 15.2446 210.98 16.6679V129.963C210.98 153.021 197.608 166.4 173.974 166.4H43.6738C16.6186 166.4 -16.0341 177.217 -16.0341 227.887V239.273C-16.0341 240.412 -17.278 241.266 -18.5219 241.266Z" fill="#99A392"/>
<path d="M455.096 539.306C420.889 539.306 394.767 523.365 377.041 491.483C330.394 408.077 357.76 239.558 412.803 169.816C461.316 108.329 524.756 128.255 551.811 136.51C553.366 137.08 554.61 137.364 555.853 137.649C559.274 123.131 565.183 116.015 573.89 116.299C575.134 116.299 576.067 117.153 576.067 118.292L577.622 158.429C583.842 129.678 596.592 98.6504 618.671 100.074C619.293 100.074 619.915 100.358 620.537 100.928C620.848 101.497 621.159 102.066 620.848 102.636L608.098 143.912C618.049 125.124 630.177 108.044 641.683 102.92C646.037 101.212 649.769 100.928 653.501 102.351C654.123 102.636 654.434 102.92 654.745 103.49C655.056 104.059 655.056 104.628 654.745 105.198L608.098 191.45C604.366 199.421 595.037 203.975 585.707 202.267L487.749 183.479C484.328 182.91 481.53 183.195 479.664 183.764C524.445 192.304 552.122 283.111 552.122 367.655C552.122 413.486 544.347 455.331 529.731 484.936C512.627 520.803 486.816 539.306 455.096 539.306ZM498.322 131.102C472.2 131.102 442.035 139.926 416.535 172.378C390.413 205.683 369.888 263.185 361.803 326.095C353.407 392.421 360.248 452.2 381.395 489.775C398.187 519.949 423.066 535.036 455.096 535.036C485.261 535.036 508.896 517.957 525.378 483.797C539.372 454.477 547.146 413.486 547.146 368.225C547.146 323.248 539.683 277.987 526.311 244.112C512.317 207.96 493.036 188.034 472.511 188.034C471.578 188.034 470.645 187.465 470.334 186.895C470.023 186.041 470.023 185.187 470.645 184.618C470.956 184.333 477.176 177.786 488.682 180.064L586.64 198.851C593.793 200.275 601.256 196.859 604.055 190.596L649.769 106.621C647.903 106.336 646.037 106.906 644.171 107.76C626.757 115.161 605.921 156.721 596.592 183.764C596.281 184.903 595.037 185.472 593.793 185.187C592.549 184.903 591.927 183.764 592.238 182.626L616.183 105.198C594.104 107.19 581.665 151.882 578.555 182.626C578.555 183.764 577.311 184.618 576.378 184.618C575.134 184.618 574.201 183.764 574.201 182.626L571.713 121.139C565.183 122.562 561.762 132.525 560.207 141.065C560.207 141.634 559.585 142.204 559.274 142.488C558.652 142.773 558.03 142.773 557.408 142.773C555.542 142.204 553.366 141.634 550.567 140.78C538.75 137.08 519.78 131.102 498.322 131.102Z" fill="#99A392"/>
<path d="M465.669 456.47C464.425 456.47 463.492 455.616 463.181 454.477C461.626 401.815 457.895 274.287 460.693 224.756C461.315 211.661 462.559 201.983 464.114 194.866C465.358 189.742 468.468 185.472 473.133 182.626C477.797 179.779 483.395 178.925 488.992 179.779L586.951 198.567C594.103 199.99 601.567 196.574 604.365 190.312L650.079 106.337C648.213 106.052 646.347 106.621 644.482 107.475C627.067 114.876 606.231 156.437 596.902 183.48C596.591 184.618 595.347 185.188 594.103 184.903C592.859 184.618 592.237 183.48 592.548 182.341L616.494 104.913C594.103 107.191 581.664 151.882 578.554 182.626C578.554 183.765 577.31 184.618 576.377 184.618C575.133 184.618 574.2 183.765 574.2 182.626L571.713 121.139C570.469 121.424 569.225 122.278 567.981 123.132C555.542 134.518 557.719 180.349 557.719 180.918C557.719 181.772 557.097 182.911 556.164 183.195C555.231 183.48 553.987 183.195 553.365 182.341C524.444 138.788 485.261 152.452 484.95 152.736C483.706 153.306 482.462 152.736 481.84 151.598C481.218 150.459 481.84 149.32 483.084 148.751C483.395 148.467 522.267 134.803 552.743 173.801C552.743 159.853 553.676 130.248 564.56 120.285C567.359 117.723 570.469 116.584 573.889 116.869C575.133 116.869 576.066 117.723 576.066 118.862L577.621 158.999C583.841 130.248 596.591 99.2201 618.981 100.643C619.603 100.643 620.225 100.928 620.847 101.497C621.158 102.067 621.469 102.636 621.158 103.205L608.408 144.481C618.359 125.694 630.488 108.614 641.994 103.49C646.347 101.782 650.079 101.497 653.811 102.921C654.433 103.205 654.744 103.49 655.055 104.059C655.366 104.629 655.366 105.198 655.055 105.767L608.408 192.02C604.676 199.99 595.347 204.545 586.018 202.837L488.059 184.049C483.706 183.195 479.352 184.049 475.931 186.042C472.2 188.319 469.712 191.45 469.09 195.436C467.535 202.268 466.602 211.946 465.669 224.756C462.87 275.425 466.913 413.202 468.157 454.193C467.846 455.616 466.913 456.47 465.669 456.47Z" fill="#99A392"/>
<path d="M1446.81 166.684C1445.57 166.684 1444.32 165.83 1444.32 164.407V102.92C1444.32 101.781 1445.26 100.643 1446.81 100.643H1467.02C1465.47 95.2343 1461.43 82.4245 1453.65 66.1988C1445.57 49.1191 1430.64 44.5645 1419.44 43.7105C1401.1 42.2872 1383.68 50.5424 1377.77 59.3669C1377.15 60.2209 1375.6 60.7902 1374.66 59.9362C1373.73 59.3669 1373.11 57.9436 1374.04 57.0896C1381.82 45.9878 1402.03 38.302 1420.07 39.7253C1437.48 40.8639 1450.85 49.9731 1458.01 64.7755C1468.27 86.6944 1472.31 101.781 1472.31 102.635C1472.62 103.205 1472.31 104.059 1472 104.343C1471.69 104.628 1470.76 105.197 1470.13 105.197H1449.3V164.692C1448.99 165.83 1448.05 166.684 1446.81 166.684Z" fill="#99A392"/>
<path d="M1425.97 142.488C1418.82 142.488 1412.91 135.087 1412.91 126.263C1412.91 117.438 1418.82 110.037 1425.97 110.037C1433.44 110.037 1439.04 117.154 1439.04 126.263C1439.04 135.372 1433.44 142.488 1425.97 142.488ZM1425.97 114.307C1421.31 114.307 1417.58 119.715 1417.58 126.263C1417.58 132.81 1421.31 138.218 1425.97 138.218C1430.64 138.218 1434.37 132.81 1434.37 126.263C1434.37 119.715 1430.64 114.307 1425.97 114.307Z" fill="#99A392"/>
<path d="M1413.53 67.0529C1392.39 67.0529 1378.08 56.2358 1377.77 56.2358C1376.84 55.3818 1376.53 54.2431 1377.46 53.1045C1378.39 52.2505 1379.64 51.9658 1380.88 52.8198C1382.12 53.6738 1410.73 75.0234 1447.12 52.8198C1448.05 52.2505 1449.61 52.5352 1450.23 53.3892C1450.85 54.2431 1450.54 55.6664 1449.61 56.2358C1436.23 64.2063 1424.11 67.0529 1413.53 67.0529Z" fill="#99A392"/>
<path d="M1413.85 67.0527C1405.45 67.0527 1398.92 60.7902 1398.92 53.389C1398.92 45.9878 1405.76 39.7252 1413.85 39.7252C1421.93 39.7252 1428.77 45.9878 1428.77 53.389C1428.77 60.7902 1421.93 67.0527 1413.85 67.0527ZM1413.85 43.7105C1408.25 43.7105 1403.58 47.9804 1403.58 53.1043C1403.58 58.2282 1408.25 62.4981 1413.85 62.4981C1419.44 62.4981 1424.11 58.2282 1424.11 53.1043C1424.11 47.9804 1419.44 43.7105 1413.85 43.7105Z" fill="#99A392"/>
<path d="M583.533 69.3305C582.289 69.3305 581.045 68.4765 581.045 67.0532V-70.723C581.045 -71.577 581.667 -72.1463 582.289 -72.7156C583.222 -73.0003 584.155 -73.0003 584.777 -72.4309C586.021 -71.577 614.32 -50.512 612.454 -6.67416C612.454 -5.53551 611.521 -4.68153 609.966 -4.68153C608.722 -4.68153 607.789 -5.82017 607.789 -6.95881C609.033 -39.1256 593.173 -58.7672 585.399 -65.8837V67.0532C585.71 68.4765 584.777 69.3305 583.533 69.3305Z" fill="#99A392"/>
<path d="M585.705 67.0532H581.041C581.041 66.4838 581.041 -41.4028 581.041 -65.8837C573.577 -58.4825 557.407 -39.1256 558.651 -6.95881C558.651 -5.82017 557.718 -4.68153 556.474 -4.68153C555.23 -4.68153 553.986 -5.53551 553.986 -6.67416C552.12 -50.7967 580.73 -71.577 581.663 -72.4309C582.285 -73.0003 583.218 -73.0003 584.151 -72.7156C585.083 -72.4309 585.395 -71.577 585.395 -70.723V67.0532H585.705Z" fill="#99A392"/>
<path d="M556.171 60.7911C555.86 60.7911 555.549 60.7911 555.549 60.7911L461.634 31.471C460.701 31.1863 460.39 30.617 460.079 29.763C459.768 28.909 460.39 28.3397 461.012 27.7704C461.634 27.4857 508.902 -6.67364 559.592 36.3102C560.525 37.1642 560.525 38.5875 559.592 39.4415C558.659 40.2955 557.104 40.2955 556.171 39.4415C516.055 5.28214 479.048 21.7925 467.231 28.6244L556.793 56.5212C558.037 56.8059 558.659 58.2292 558.348 59.3678C558.037 60.2218 557.104 60.7911 556.171 60.7911Z" fill="#99A392"/>
<path d="M610.898 60.7906C609.965 60.7906 609.032 60.2213 608.721 59.3673C608.41 58.2287 609.032 57.09 610.276 56.5207L699.838 28.6239C688.331 21.792 651.014 4.997 610.898 39.441C609.965 40.295 608.41 40.295 607.477 39.441C606.544 38.5871 606.544 37.1637 607.477 36.3098C658.167 -6.95878 705.746 27.2006 706.368 27.4853C706.99 28.0546 707.301 28.6239 707.301 29.4779C707.301 30.3319 706.679 30.9012 705.746 31.1858L611.52 60.7906C611.209 60.7906 610.898 60.7906 610.898 60.7906Z" fill="#99A392"/>
<path d="M583.537 69.3301C582.293 69.3301 581.049 68.4761 581.049 67.3375C581.049 34.6014 572.341 10.1205 554.926 -4.96652C537.823 -19.7689 516.676 -21.7615 507.658 -21.7615L567.677 46.5572C568.61 47.4112 568.299 48.8345 567.366 49.6885C566.433 50.5425 564.878 50.2578 563.945 49.4038L500.816 -22.0462C500.194 -22.6155 500.194 -23.4695 500.505 -24.3235C500.816 -25.1775 501.438 -25.4621 502.371 -25.7468C503.615 -25.7468 533.78 -28.8781 557.725 -7.81314C576.073 8.1279 585.402 33.4628 585.402 67.6222C585.713 68.4761 584.78 69.3301 583.537 69.3301Z" fill="#99A392"/>
<path d="M279.4 88.6871C238.973 88.6871 206.32 56.2357 206.32 16.6678C206.32 -22.9002 239.284 -55.3516 279.4 -55.3516C319.516 -55.3516 352.48 -22.9002 352.48 16.6678C352.48 56.2357 319.827 88.6871 279.4 88.6871ZM279.4 -51.0816C241.461 -51.0816 210.985 -20.6229 210.985 16.6678C210.985 53.9584 241.772 84.4172 279.4 84.4172C317.029 84.4172 347.815 53.9584 347.815 16.6678C347.815 -20.6229 317.34 -51.0816 279.4 -51.0816Z" fill="#99A392"/>
<path d="M290.592 87.8332C289.348 87.8332 288.104 86.9792 288.104 85.5559V23.7844C288.104 22.6457 289.037 21.5071 290.592 21.5071H310.805C309.25 16.0985 305.208 3.28876 297.433 -12.9369C289.348 -30.0166 274.421 -34.5712 263.226 -35.4252C244.878 -36.8485 227.463 -28.5933 221.555 -19.7688C220.933 -18.9148 219.378 -18.3455 218.445 -19.1995C217.512 -19.7688 216.89 -21.1921 217.823 -22.0461C225.597 -33.1479 245.811 -40.8338 263.848 -39.4105C281.262 -38.2718 294.634 -29.1627 301.787 -14.3603C312.049 7.55868 316.092 22.6457 316.092 23.4997C316.403 24.069 316.092 24.923 315.781 25.2077C315.47 25.777 314.537 26.0617 313.915 26.0617H293.08V85.5559C293.08 86.6946 291.836 87.8332 290.592 87.8332Z" fill="#99A392"/>
<path d="M269.754 63.3525C262.291 63.3525 256.693 56.236 256.693 47.1268C256.693 38.0177 262.602 30.9011 269.754 30.9011C276.907 30.9011 282.815 38.0177 282.815 47.1268C282.815 56.236 277.218 63.3525 269.754 63.3525ZM269.754 35.171C265.09 35.171 261.358 40.5796 261.358 47.1268C261.358 53.674 265.09 59.0826 269.754 59.0826C274.419 59.0826 278.151 53.674 278.151 47.1268C278.151 40.5796 274.419 35.171 269.754 35.171Z" fill="#99A392"/>
<path d="M583.533 69.3303C582.289 69.3303 581.045 68.4763 581.045 67.053C581.045 32.8936 590.374 7.55874 608.722 -8.3823C632.668 -29.1626 662.833 -26.316 664.076 -26.316C665.009 -26.316 665.631 -25.7467 665.942 -24.8927C666.253 -24.0387 666.253 -23.4694 665.631 -22.6154L602.503 48.8346C601.57 49.6886 600.326 49.9733 599.082 49.1193C598.149 48.2653 597.838 47.1267 598.771 45.988L658.79 -22.3307C649.771 -22.3307 628.625 -20.3381 611.521 -5.53569C594.106 9.55137 585.399 34.0322 585.399 66.7683C585.71 68.4763 584.777 69.3303 583.533 69.3303Z" fill="#99A392"/>
<path d="M582.918 113.122C582.296 113.122 581.363 112.837 581.052 112.268L545.912 72.4152C545.29 71.5613 545.29 70.4226 545.912 69.8533L563.638 49.6423C563.948 49.073 564.881 48.7883 565.503 48.7883C566.125 48.7883 566.747 49.073 567.369 49.6423L582.918 67.2913L598.467 49.6423C598.778 49.073 599.711 48.7883 600.333 48.7883C600.955 48.7883 601.577 49.073 602.199 49.6423L619.925 69.8533C620.547 70.7073 620.547 71.8459 619.925 72.4152L584.784 112.268C584.162 112.837 583.54 113.122 582.918 113.122ZM550.576 70.9919L582.918 107.429L615.26 70.9919L600.333 54.1969L584.784 71.8459C584.473 72.4152 583.54 72.6999 582.918 72.6999C582.296 72.6999 581.674 72.4152 581.052 71.8459L565.503 54.1969L550.576 70.9919Z" fill="#99A392"/>
</g>
<mask id="mask1" style="mask-type:alpha" maskUnits="userSpaceOnUse" x="910" y="420" width="614" height="1150">
<rect x="910.818" y="420.071" width="612.353" height="1149.61" fill="#C4C4C4"/>
</mask>
<g mask="url(#mask1)">
</g>
</g>
<defs>
<clipPath id="clip0">
<rect width="2082" height="618" fill="white" transform="translate(-457 -73)"/>
</clipPath>
</defs>
</svg>
