<svg width="1954" height="732" viewBox="0 0 1954 732" fill="none" xmlns="http://www.w3.org/2000/svg">
<g opacity="0.12" clip-path="url(#clip0)">
<path d="M1194.9 390.647C1209.19 390.639 1220.26 365.316 1220.24 333.247C1220.23 301.179 1209.13 275.868 1194.84 275.876C1180.55 275.884 1169.49 301.207 1169.5 333.276C1169.52 365.344 1180.9 390.655 1194.9 390.647ZM1194.85 280.94C1206.22 280.933 1215.85 304.895 1215.87 333.25C1215.88 361.605 1206.27 385.577 1194.9 385.583C1183.52 385.59 1173.89 361.628 1173.87 333.273C1173.86 304.918 1183.76 280.946 1194.85 280.94Z" fill="#969A7E"/>
<path d="M1131.02 357.265C1148.81 357.255 1162.79 325.178 1162.77 283.996C1162.75 242.813 1148.74 210.753 1130.95 210.763C1113.16 210.773 1099.18 242.849 1099.2 284.032C1099.22 325.214 1113.23 357.275 1131.02 357.265ZM1130.95 216.164C1145.83 216.156 1158.38 247.204 1158.4 284.336C1158.42 321.13 1145.89 352.53 1131.02 352.539C1116.15 352.547 1103.59 321.499 1103.58 284.367C1103.56 247.235 1116.08 216.172 1130.95 216.164Z" fill="#969A7E"/>
<path d="M1065.11 338.398C1074.15 338.393 1081.14 322.862 1081.13 303.283C1081.12 283.704 1074.11 268.181 1065.07 268.186C1056.03 268.191 1049.04 283.722 1049.05 303.301C1049.06 322.88 1056.07 338.403 1065.11 338.398ZM1065.08 273.249C1070.62 273.246 1076.75 285.732 1076.75 303.285C1076.76 320.839 1070.64 333.332 1065.1 333.335C1059.56 333.338 1053.43 320.852 1053.43 303.299C1053.42 285.745 1059.53 273.252 1065.08 273.249Z" fill="#969A7E"/>
<path d="M1194.92 424.066C1196.08 424.066 1197.25 423.052 1197.25 421.364L1197.21 344.063C1197.21 342.713 1196.33 341.363 1194.88 341.364C1193.42 341.365 1192.54 342.378 1192.54 344.066L1192.58 421.367C1192.87 423.055 1193.75 424.067 1194.92 424.066Z" fill="#969A7E"/>
<path d="M1131.04 400.135C1132.21 400.134 1133.37 399.121 1133.37 397.433L1133.33 312.367C1133.33 311.017 1132.45 309.667 1131 309.668C1129.54 309.669 1128.66 310.682 1128.66 312.37L1128.7 397.773C1129 399.123 1129.87 400.135 1131.04 400.135Z" fill="#969A7E"/>
<path d="M1065.12 361.69C1066.29 361.689 1067.45 360.676 1067.45 358.988L1067.43 312.404C1067.43 311.054 1066.55 309.704 1065.1 309.705C1063.64 309.706 1062.76 310.719 1062.77 312.407L1062.79 359.328C1062.79 360.678 1063.66 361.69 1065.12 361.69Z" fill="#969A7E"/>
<path d="M2.39194 731.243C3.55837 731.242 4.72428 730.229 4.72347 728.541L4.45676 171.565L271.065 336.82C271.648 337.157 272.523 337.157 273.106 336.819L411.285 248.638C427.902 238.164 447.44 238.153 463.775 248.608L512.488 279.974C513.655 280.648 514.821 280.31 515.404 278.96C515.986 277.609 515.694 276.259 514.527 275.584L465.814 244.219C448.02 232.752 426.733 232.764 408.951 244.251L271.646 331.756L2.99565 165.152C2.41228 164.815 1.53742 164.815 0.954366 165.153C0.371314 165.491 -0.211308 166.504 -0.210985 167.179L0.0578267 728.544C0.35008 729.894 1.22551 731.244 2.39194 731.243Z" fill="#969A7E"/>
<path d="M444.62 444.067C445.495 444.066 446.078 443.728 446.661 442.715C447.244 441.365 446.951 440.015 445.784 439.34L203.679 289.262C202.512 288.587 201.346 288.925 200.763 290.276C200.18 291.627 200.473 292.977 201.64 293.651L443.745 443.73C444.037 443.729 444.329 444.067 444.62 444.067Z" fill="#969A7E"/>
<path d="M1702.75 128.752C1725.79 128.739 1744.44 105.436 1744.43 77.0813C1744.42 48.7262 1725.74 25.445 1702.7 25.4579C1679.67 25.4709 1661.02 48.7731 1661.03 77.1283C1661.33 105.821 1679.72 128.765 1702.75 128.752ZM1702.71 30.5213C1723.12 30.5098 1740.04 51.4291 1740.05 77.0838C1740.07 102.738 1723.46 123.677 1702.75 123.688C1682.34 123.7 1665.42 102.78 1665.4 77.1258C1665.68 51.471 1682.29 30.5328 1702.71 30.5213Z" fill="#969A7E"/>
<path d="M1708.88 128.073C1710.05 128.072 1711.21 127.059 1711.21 125.371L1711.19 84.8638L1721.98 84.8577C1722.57 84.8574 1723.15 84.5195 1723.73 83.844C1724.02 83.1687 1724.31 82.4935 1724.02 81.8185C1724.02 81.4809 1721.68 70.3427 1715.84 55.1558C1711.76 44.3561 1703.88 37.9469 1693.96 36.9398C1683.47 35.933 1672.1 41.3404 1667.73 49.7819C1667.14 50.7949 1667.44 52.4825 1668.31 53.1571C1669.48 53.8316 1670.64 53.4934 1671.23 52.4804C1674.43 46.74 1683.76 40.9962 1693.68 42.0033C1699.51 42.6752 1707.38 45.7088 1711.76 57.1834C1715.56 67.3081 1717.9 75.7459 1718.77 79.7961L1708.86 79.8017C1707.69 79.8023 1706.52 80.8157 1706.53 82.5035L1706.55 126.049C1706.84 127.061 1707.71 128.074 1708.88 128.073Z" fill="#969A7E"/>
<path d="M1697.49 110.864C1702.16 110.861 1705.66 105.458 1705.65 98.3694C1705.65 91.2806 1702.15 85.8816 1697.48 85.8842C1692.82 85.8869 1689.32 91.2898 1689.32 98.3786C1689.33 105.467 1692.83 110.866 1697.49 110.864ZM1697.48 91.2852C1699.23 91.2842 1701.28 94.3211 1701.28 98.7094C1701.28 103.098 1699.24 106.137 1697.49 106.138C1695.74 106.139 1693.7 103.102 1693.7 98.7137C1693.69 94.3254 1695.73 91.2862 1697.48 91.2852Z" fill="#969A7E"/>
<path d="M1690.47 57.8701C1696.6 57.8666 1703.59 55.8373 1710.88 50.0947C1711.76 49.4191 1712.05 47.7311 1711.46 46.7188C1710.88 45.7064 1709.42 45.3697 1708.55 46.0453C1689.02 61.2465 1673.55 46.7401 1672.68 46.0655C1671.8 45.0533 1670.35 45.3917 1669.47 46.4048C1668.6 47.418 1668.89 49.1056 1669.76 50.1178C1670.06 50.1177 1678.22 57.877 1690.47 57.8701Z" fill="#969A7E"/>
<path d="M1690.18 57.8704C1695.14 57.8676 1699.51 53.1393 1699.51 47.0632C1699.5 40.9871 1695.42 36.2635 1690.17 36.2665C1685.21 36.2693 1680.84 40.9976 1680.84 47.0737C1680.85 53.1498 1684.93 57.8734 1690.18 57.8704ZM1690.17 41.6675C1692.8 41.666 1695.13 44.3652 1695.13 47.4032C1695.13 50.4413 1692.8 53.1431 1690.18 53.1445C1687.55 53.146 1685.22 50.4468 1685.22 47.4088C1685.22 44.3707 1687.55 41.6689 1690.17 41.6675Z" fill="#969A7E"/>
<path d="M1688.09 566.576C1689.25 566.576 1690.42 565.562 1690.42 563.875L1690.3 315.767C1690.28 274.585 1667.24 268.521 1653.54 268.529L1616.5 268.55C1602.21 268.558 1599.29 256.745 1599.29 246.956L1599.27 212.525C1599.27 211.174 1598.39 209.825 1596.94 209.825C1595.48 209.826 1594.6 210.839 1594.6 212.527L1594.62 246.958C1594.63 263.836 1602.51 273.621 1616.21 273.614L1653.25 273.593C1667.83 273.585 1685.62 281.001 1685.64 315.77L1685.75 564.215C1686.05 565.565 1686.92 566.577 1688.09 566.576Z" fill="#969A7E"/>
<path d="M1430.61 573.473C1431.77 573.472 1432.94 572.459 1432.94 570.771L1432.82 315.912C1432.8 281.144 1450.29 273.707 1465.16 273.699L1522.61 273.667C1536.32 273.659 1544.18 263.865 1544.18 246.987L1544.14 167.66C1544.14 166.31 1543.26 164.96 1541.8 164.961C1540.35 164.962 1539.47 165.975 1539.47 167.663L1539.51 247.327C1539.52 257.117 1536.6 268.933 1522.32 268.941L1464.87 268.973C1451.16 268.981 1428.13 275.07 1428.15 316.253L1428.27 570.774C1428.27 572.462 1429.44 573.474 1430.61 573.473Z" fill="#969A7E"/>
<path d="M1580.9 219.624C1603.94 219.611 1622.59 196.309 1622.58 167.954C1622.56 139.599 1603.89 116.318 1580.85 116.33C1557.82 116.343 1539.16 139.646 1539.18 168.001C1539.19 196.356 1558.16 219.637 1580.9 219.624ZM1580.86 121.394C1601.27 121.382 1618.19 142.302 1618.2 167.956C1618.22 193.611 1601.6 214.549 1580.9 214.561C1560.49 214.572 1543.56 193.653 1543.55 167.998C1543.54 142.344 1560.44 121.405 1580.86 121.394Z" fill="#969A7E"/>
<path d="M1597.23 215.227C1598.4 215.226 1599.56 214.213 1599.56 212.525L1599.54 175.393L1613.54 175.385C1614.12 175.385 1615 175.047 1615.29 174.371C1615.58 173.696 1615.87 173.021 1615.58 172.008C1615.58 171.671 1612.66 160.533 1605.36 145.347C1600.4 134.885 1591.36 128.477 1579.69 127.47C1566.57 126.128 1551.99 131.537 1546.16 139.979C1545.29 140.992 1545.58 142.68 1546.46 143.692C1547.33 144.704 1548.79 144.366 1549.66 143.353C1553.74 137.274 1566.28 131.529 1579.4 132.872C1586.69 133.543 1596.32 136.913 1601.86 148.049C1606.53 158.173 1609.45 166.273 1610.62 170.661L1597.5 170.668C1596.33 170.669 1595.17 171.682 1595.17 173.37L1595.19 213.202C1594.9 214.215 1596.06 215.227 1597.23 215.227Z" fill="#969A7E"/>
<path d="M1825.01 285.649C1848.04 285.636 1866.7 262.334 1866.68 233.979C1866.67 205.623 1848 182.342 1824.96 182.355C1801.92 182.368 1783.27 205.67 1783.28 234.026C1783.3 262.381 1801.97 285.662 1825.01 285.649ZM1824.96 187.419C1845.37 187.407 1862.3 208.326 1862.31 233.981C1862.32 259.636 1845.71 280.574 1825.01 280.585C1804.59 280.597 1787.67 259.678 1787.66 234.023C1787.65 208.368 1804.55 187.43 1824.96 187.419Z" fill="#969A7E"/>
<path d="M1808.68 282.957C1809.85 282.957 1811.01 281.943 1811.01 280.256L1810.99 239.073C1810.99 237.723 1810.12 236.373 1808.66 236.374L1795.54 236.381C1796.7 231.992 1799.61 223.889 1804.27 213.76C1809.52 202.28 1819.43 199.236 1826.72 198.557C1839.55 197.199 1852.09 202.931 1856.47 209.004C1857.34 210.017 1858.51 210.354 1859.68 209.34C1860.55 208.327 1860.84 206.977 1859.97 205.627C1854.13 197.191 1839.55 191.798 1826.43 193.156C1814.76 194.513 1805.43 200.594 1800.77 211.061C1793.49 226.593 1790.87 237.397 1790.58 237.734C1790.29 238.41 1790.58 239.422 1790.87 240.097C1791.16 240.772 1792.04 241.109 1792.62 241.109L1806.62 241.101L1806.64 279.92C1806.64 281.946 1807.51 282.958 1808.68 282.957Z" fill="#969A7E"/>
<path d="M1830.25 268.093C1834.92 268.09 1838.41 262.687 1838.41 255.599C1838.41 248.51 1834.91 243.111 1830.24 243.113C1825.57 243.116 1822.08 248.519 1822.08 255.608C1822.08 262.696 1825.88 268.095 1830.25 268.093ZM1830.24 248.177C1831.99 248.176 1834.03 251.213 1834.04 255.601C1834.04 259.989 1832 263.028 1830.25 263.029C1828.5 263.03 1826.46 259.994 1826.45 255.605C1826.45 251.217 1828.49 248.178 1830.24 248.177Z" fill="#969A7E"/>
<path d="M1832.56 215.769C1847.72 215.76 1857.92 207.316 1857.92 206.978C1858.8 206.303 1859.09 204.615 1858.51 203.602C1857.92 202.59 1856.46 202.253 1855.59 202.929C1854.71 203.604 1834.6 220.156 1809.22 202.955C1808.06 202.28 1806.89 202.619 1806.31 203.969C1805.73 205.32 1806.02 206.67 1807.18 207.344C1816.23 213.753 1824.98 215.773 1832.56 215.769Z" fill="#969A7E"/>
<path d="M1830.52 215.77C1835.77 215.767 1840.14 210.702 1840.14 204.625C1840.13 198.549 1835.76 193.488 1830.51 193.491C1825.26 193.494 1820.89 198.56 1820.89 204.636C1820.89 210.712 1825.27 215.773 1830.52 215.77ZM1830.51 198.555C1833.43 198.553 1835.76 201.252 1835.76 204.628C1835.76 208.004 1833.43 210.705 1830.52 210.707C1827.6 210.709 1825.27 208.009 1825.26 204.634C1825.26 201.258 1827.59 198.556 1830.51 198.555Z" fill="#969A7E"/>
<path d="M887.893 507.616C889.06 507.615 889.934 507.615 891.101 507.277C891.684 507.276 892.267 506.601 892.558 506.263C892.849 505.588 893.141 504.912 892.849 504.237L879.406 444.834C887.875 469.134 897.8 491.745 910.634 498.151C915.301 500.512 919.966 500.509 924.923 498.481C925.506 498.143 925.797 497.805 926.089 497.13C926.38 496.455 926.379 495.78 926.088 495.105L880.542 380.359C878.498 374.96 874.997 370.573 870.913 367.537L813.738 326.387C803.237 318.967 790.114 318.637 779.328 325.731L525.129 496.005L526.516 348.49C526.516 347.14 525.64 345.79 524.474 345.791C523.307 345.792 522.141 346.805 522.142 348.155L520.757 500.059C520.757 501.071 521.049 501.746 521.924 502.421C522.508 502.758 523.382 502.758 524.257 502.42L781.663 330.118C790.992 323.699 802.364 324.031 811.699 330.777L868.29 371.927C871.791 374.626 874.709 378 876.46 382.387L920.838 494.77C917.923 495.447 915.007 495.111 912.09 493.762C896.339 485.67 883.489 445.17 874.435 415.807C872.391 409.057 870.346 402.307 868.302 396.907C868.01 395.557 866.552 394.882 865.677 395.558C864.803 396.234 863.929 397.247 864.221 398.597L887.891 502.89C867.77 502.901 856.374 453.961 847.024 414.472C845.855 409.072 844.394 403.671 843.225 398.609C842.933 397.259 841.766 396.584 840.6 396.922C839.434 397.261 838.851 398.611 838.852 399.961L853.765 487.381C852.599 487.72 851.433 487.383 850.266 486.708C837.723 479.289 827.2 427.31 824.275 407.734C824.275 407.058 823.691 406.384 823.399 406.046C805.605 392.216 782.568 392.229 764.786 406.079C763.912 406.755 763.621 408.443 764.205 409.455C764.789 410.467 766.247 410.804 767.121 410.129C783.154 397.63 803.858 397.281 820.193 409.424C820.778 413.474 823.41 429 827.501 445.201C833.928 471.19 840.934 486.376 848.227 490.76C851.143 492.446 854.351 492.444 857.266 490.755C858.141 490.417 858.724 489.066 858.431 488.054L852.876 455.989C861.346 484.677 871.855 507.625 887.893 507.616Z" fill="#969A7E"/>
<path d="M685.653 176.582C695.568 176.577 705.19 174.208 714.519 168.802C730.844 159.341 743.084 142.456 748.322 121.187C753.561 99.9177 751.801 77.3021 743.043 56.7158C734.285 36.467 719.697 20.9474 701.905 13.1935C684.113 5.43961 665.159 6.46296 648.834 15.9239C632.509 25.3848 620.269 42.2697 615.031 63.5391C609.792 84.8084 611.552 107.424 620.31 128.01C633.447 158.383 659.409 176.597 685.653 176.582ZM677.41 13.2073C684.992 13.203 692.575 14.8866 700.158 17.9204C716.783 25.3373 730.787 39.8446 738.961 59.081C747.135 78.3174 749.187 99.9202 743.948 119.839C739 139.758 727.635 155.292 712.475 164.415C680.699 182.661 641.032 165.468 623.808 125.645C615.634 106.409 613.583 84.8062 618.822 64.8872C623.77 44.9683 635.135 29.434 650.294 20.3113C659.04 15.5806 668.079 13.2125 677.41 13.2073Z" fill="#969A7E"/>
<path d="M731.71 153.265C732.001 153.265 732.293 153.265 732.584 152.927C733.75 152.251 734.041 150.901 733.457 149.551L706.015 84.0795L723.507 73.9428C724.09 73.6049 724.673 72.9295 724.672 72.2544C724.672 71.5792 724.671 70.5666 724.088 70.2293C723.796 69.5544 713.292 55.3827 694.62 37.1649C680.033 22.9955 665.453 24.0164 655.832 27.0599C638.629 32.8081 625.515 49.6936 622.023 63.5356C621.732 64.886 622.316 66.2359 623.482 66.5728C624.649 66.9097 625.815 66.2339 626.106 64.8835C629.599 52.3918 641.256 37.1949 657 31.7851C665.747 28.7421 678.577 28.0598 691.706 40.8797C705.709 54.3743 715.046 66.1837 718.548 70.9076L701.639 80.7064C700.473 81.3821 700.182 82.7326 700.766 84.0825L729.084 151.916C729.96 152.929 730.835 153.266 731.71 153.265Z" fill="#969A7E"/>
<path d="M699.623 136.068C701.081 136.067 702.539 135.728 703.996 135.052C710.118 131.336 711.863 121.208 707.484 111.421C703.397 101.634 695.23 96.913 689.108 100.63C682.986 104.346 681.241 114.474 685.62 124.261C688.831 131.685 694.374 136.071 699.623 136.068ZM703.694 113.449C706.614 120.198 706.034 127.963 701.953 130.328C698.163 132.693 692.329 128.645 689.41 121.896C686.491 115.146 687.07 107.382 691.151 105.017C694.941 102.652 700.483 106.699 703.694 113.449Z" fill="#969A7E"/>
<path d="M633.4 67.5802C646.23 67.5729 668.974 62.8343 684.122 31.7701C684.705 30.4195 684.413 29.0694 683.246 28.395C682.079 27.7205 680.913 28.0587 680.33 29.4093C660.229 70.6031 626.399 62.1831 624.94 61.5088C623.774 61.1719 622.608 62.1853 622.317 63.5357C622.026 64.8861 622.901 66.2358 624.068 66.5727C624.068 66.5727 627.568 67.5834 633.4 67.5802Z" fill="#969A7E"/>
<path d="M652.062 62.8433C654.103 62.8422 656.435 62.1658 658.476 61.1519C665.473 57.0973 668.384 47.3063 664.881 39.2068C661.378 31.1073 652.92 27.7365 645.923 31.7912C642.425 33.8185 640.093 37.1954 638.929 41.2468C637.764 45.2982 638.058 49.6863 639.81 53.7361C641.561 57.7858 644.479 60.4847 647.979 61.833C649.145 62.845 650.603 62.8442 652.062 62.8433ZM660.8 41.5721C663.135 46.9717 661.097 54.0617 656.433 56.7648C654.101 58.1163 651.476 58.4554 649.143 57.444C646.81 56.4326 644.767 54.4084 643.6 51.7086C642.432 49.0088 642.139 45.9709 643.012 43.2699C643.886 40.5689 645.634 38.205 647.967 36.8534C652.631 33.8128 658.464 36.1724 660.8 41.5721Z" fill="#969A7E"/>
<path d="M1950.91 730.484C1952.07 730.483 1953.24 729.47 1953.24 727.782L1953.13 504.992C1953.13 504.317 1952.84 503.642 1952.25 502.967C1951.67 502.63 1951.09 502.292 1950.5 502.293L1551.05 591.971C1511.1 598.407 1470.85 590.666 1434.68 569.758L1283.01 482.415C1265.21 466.559 1240.42 465.898 1221.77 480.424L1066.11 600.346C1065.23 601.021 1064.94 602.709 1065.53 603.722C1066.11 604.734 1067.57 605.071 1068.44 604.395L1224.1 485.148C1241.3 471.636 1263.76 472.636 1280.38 487.142L1280.68 487.479L1432.65 574.822C1469.69 596.068 1510.81 603.808 1551.63 597.372L1948.76 508.37L1948.86 728.122C1948.86 729.135 1949.74 730.484 1950.91 730.484Z" fill="#969A7E"/>
<path d="M1452.04 275.732C1452.62 275.731 1453.5 275.393 1453.79 274.718C1454.37 273.705 1454.08 272.017 1453.2 271.343L1221.87 91.215C1204.08 77.385 1181.04 77.398 1163.26 91.248L976.117 237.18C975.243 237.855 974.952 239.543 975.536 240.556C976.119 241.568 977.577 241.905 978.452 241.229L1165.59 95.2974C1181.92 82.4609 1202.91 82.4491 1219.25 95.2672L1450.58 275.395C1451.16 275.732 1451.75 275.732 1452.04 275.732Z" fill="#969A7E"/>
<path d="M1802.51 196.545C1803.1 196.545 1803.39 196.207 1803.97 195.869C1804.85 194.856 1805.14 193.505 1804.26 192.156C1798.13 183.045 1788.22 177.987 1775.68 177.994L1738.64 178.015C1724.35 178.023 1721.43 166.21 1721.43 156.421L1721.41 121.652C1721.41 120.302 1720.53 118.952 1719.08 118.953C1717.62 118.954 1716.74 119.967 1716.74 121.655L1716.76 156.761C1716.77 173.639 1724.65 183.424 1738.35 183.416L1775.68 183.395C1783.26 183.391 1794.05 185.41 1800.76 195.533C1801.06 196.208 1801.93 196.545 1802.51 196.545Z" fill="#969A7E"/>
<path d="M1950.91 729.134C1952.07 729.133 1953.24 728.12 1953.24 726.432L1953.07 374.356C1953.05 336.886 1934.09 333.859 1916.31 333.869C1907.56 333.874 1902.6 334.214 1897.94 334.554C1893.85 334.894 1890.06 335.234 1883.36 335.238C1869.07 335.246 1866.15 323.433 1866.14 313.643L1866.1 233.979C1866.1 232.629 1865.23 231.279 1863.77 231.28C1862.31 231.281 1861.44 232.294 1861.44 233.982L1861.47 313.646C1861.48 330.524 1869.36 340.309 1883.07 340.301C1889.77 340.297 1893.56 339.958 1897.65 339.618C1902.31 339.278 1906.98 338.938 1915.73 338.933C1932.64 338.923 1948.1 341.615 1948.11 374.358L1948.28 726.772C1948.86 728.122 1949.74 729.134 1950.91 729.134Z" fill="#969A7E"/>
<path d="M1718.12 560.146C1719.29 560.145 1720.46 559.132 1720.45 557.444L1720.37 382.25C1720.35 347.481 1737.85 340.045 1752.72 340.037L1789.46 340.016C1803.17 340.008 1811.04 330.215 1811.03 313.336L1811.01 278.905C1811.01 277.555 1810.13 276.205 1808.68 276.206C1807.22 276.207 1806.34 277.22 1806.35 278.908L1806.36 313.339C1806.37 323.128 1803.46 334.945 1789.17 334.953L1752.13 334.974C1738.43 334.981 1715.39 341.07 1715.41 382.253L1715.5 557.447C1715.79 558.797 1716.96 560.147 1718.12 560.146Z" fill="#969A7E"/>
<path d="M621.832 266.41C622.706 266.409 623.289 266.071 623.581 265.058C624.163 263.708 623.871 262.358 622.704 261.683C588.867 238.748 567.558 193.865 567.534 144.581C567.5 71.6674 613.836 12.2305 670.7 12.1985C675.657 12.1958 680.614 12.5305 685.572 13.5404C686.739 13.8773 687.905 12.864 688.196 11.5136C688.487 10.1632 687.611 8.81341 686.445 8.47651C681.195 7.46678 675.946 7.13217 670.697 7.13512C611.501 7.16844 563.124 68.9694 563.16 144.583C563.185 195.555 585.078 242.126 620.373 266.073C621.248 266.41 621.54 266.41 621.832 266.41Z" fill="#969A7E"/>
<path d="M1132.28 555.412C1132.86 555.412 1133.45 555.074 1134.03 554.399C1134.9 553.385 1134.61 551.698 1133.74 550.686C1129.94 546.975 1125.86 543.601 1121.48 539.891C1090.85 514.253 1070.15 509.201 1050.02 504.487C1029.61 499.772 1010.36 495.057 980.313 470.095C950.266 445.132 940.341 425.222 930.125 404.298C919.909 383.713 909.401 362.79 878.479 337.153C877.603 336.478 876.728 335.804 876.145 335.129C875.27 334.454 873.812 334.455 873.229 335.806C872.646 336.819 872.647 338.506 873.814 339.181C874.689 339.855 875.273 340.53 876.148 341.205C906.195 366.168 916.119 386.078 926.336 407.001C936.552 427.587 947.059 448.51 977.982 474.147C1008.9 499.784 1029.32 504.836 1049.44 509.551C1069.86 514.265 1089.11 518.98 1119.15 543.943C1123.24 547.316 1127.32 551.027 1131.11 554.4C1131.41 555.075 1131.7 555.413 1132.28 555.412Z" fill="#969A7E"/>
<path d="M1188.25 512.173C1188.83 512.173 1189.42 511.835 1189.71 511.497C1190.58 510.484 1190.58 508.796 1189.71 507.784C1183.29 500.699 1175.99 493.614 1167.53 486.53C1136.9 460.892 1116.2 455.841 1096.07 451.126C1075.66 446.412 1056.41 441.697 1026.36 416.734C996.315 391.771 986.391 371.861 976.174 350.938C965.958 330.352 955.45 309.429 924.528 283.792C893.897 258.155 873.19 253.103 853.067 248.389C832.652 243.674 813.404 238.959 783.357 213.996C753.309 189.034 743.385 168.786 733.461 149.213C732.877 147.863 731.419 147.526 730.544 148.202C729.378 148.878 729.087 150.565 729.671 151.578C739.595 171.488 750.103 192.411 780.734 218.049C811.365 243.686 832.072 248.738 852.195 253.452C872.609 258.167 891.858 262.882 921.905 287.844C951.953 312.807 961.877 332.718 972.093 353.641C982.309 374.226 992.817 395.149 1023.74 420.786C1054.37 446.424 1075.08 451.476 1095.2 456.19C1115.62 460.904 1134.86 465.619 1164.91 490.582C1173.37 497.666 1180.37 504.413 1186.5 511.499C1187.08 511.836 1187.67 512.173 1188.25 512.173Z" fill="#969A7E"/>
<path d="M444.728 670.233C445.895 670.232 447.061 669.219 447.06 667.531L446.909 353.262C446.88 292.838 477.202 280.331 502.863 280.317L595.886 280.265C618.048 280.252 630.579 264.38 630.566 237.037L630.519 138.469C630.518 137.119 629.643 135.769 628.185 135.77C626.727 135.771 625.852 136.784 625.853 138.472L625.9 237.04C625.909 254.256 620.67 275.187 595.592 275.201L502.569 275.254C480.115 275.266 442.211 285.415 442.244 353.264L442.394 667.534C442.686 668.884 443.562 670.234 444.728 670.233Z" fill="#969A7E"/>
<path d="M875.584 378.675C876.75 378.674 877.916 377.661 877.915 375.973L877.904 353.019C877.872 285.169 839.958 275.064 817.504 275.076L755.1 275.112C730.022 275.126 724.763 254.537 724.755 236.984L724.718 160.358C724.717 159.008 723.842 157.658 722.384 157.659C720.926 157.659 720.052 158.673 720.052 160.36L720.089 236.987C720.102 264.329 732.649 280.188 754.811 280.175L817.215 280.14C842.585 280.126 873.21 292.936 873.238 353.022L873.249 375.976C873.25 377.326 874.417 378.676 875.584 378.675Z" fill="#969A7E"/>
<path d="M1247.72 476.021C1248.31 476.02 1248.6 475.683 1249.18 475.345C1250.05 474.331 1250.35 472.981 1249.47 471.631C1240.13 457.797 1228.75 445.313 1213.88 432.832C1183.24 407.194 1162.54 402.143 1142.41 397.428C1122 392.714 1102.75 387.999 1072.7 363.036C1042.66 338.073 1032.73 318.163 1022.52 297.24C1012.3 276.654 1001.79 255.731 970.87 230.094C939.947 204.457 919.532 199.405 899.409 194.69C878.994 189.976 859.746 185.261 829.698 160.298C799.651 135.336 789.727 115.425 779.511 94.5021C770.462 76.2789 760.83 57.3809 736.907 35.1153C736.907 35.1153 736.907 35.1153 736.616 34.7779C717.652 16.2227 695.194 6.44605 671.282 6.45951C670.116 6.46016 668.95 7.4735 668.951 9.16131C668.951 10.8491 669.827 11.8613 671.285 11.8605C694.03 11.8477 715.614 21.2873 733.702 38.8303L733.993 39.1677C757.624 60.7583 766.381 78.6441 775.721 97.5423C785.937 118.128 796.445 139.051 827.368 164.688C858.29 190.325 878.705 195.377 898.828 200.092C919.243 204.806 938.491 209.521 968.539 234.484C998.586 259.446 1008.22 279.357 1018.44 300.28C1028.65 320.866 1039.16 341.789 1070.08 367.426C1101 393.063 1121.42 398.115 1141.54 402.83C1161.96 407.544 1181.21 412.259 1211.25 437.222C1226.13 449.703 1237.22 461.511 1245.97 475.009C1246.56 475.684 1247.14 476.021 1247.72 476.021Z" fill="#969A7E"/>
<path d="M369.522 731.036C369.813 731.036 370.396 731.036 370.688 730.698L767.12 410.129C783.444 397.293 804.44 397.281 820.776 410.099C821.651 410.774 823.109 410.435 823.691 409.422C824.274 408.409 823.982 406.722 823.107 406.047C805.312 392.217 782.275 392.23 764.494 406.08L368.062 726.649C367.187 727.325 366.896 729.013 367.48 730.025C368.063 730.362 368.939 731.037 369.522 731.036Z" fill="#969A7E"/>
<path d="M1223.93 730.555C1224.52 730.554 1225.39 730.216 1225.68 729.541C1226.27 728.528 1225.97 726.84 1225.1 726.166L920.837 483.293C919.962 482.618 918.504 482.956 917.921 483.969C917.338 484.982 917.631 486.67 918.506 487.345L1222.77 729.543C1223.06 730.218 1223.35 730.555 1223.93 730.555Z" fill="#969A7E"/>
<path d="M1575.64 201.736C1580.31 201.734 1583.81 196.331 1583.8 189.242C1583.8 182.153 1580.3 176.754 1575.63 176.757C1570.97 176.759 1567.47 182.162 1567.47 189.251C1567.48 196.34 1570.98 201.739 1575.64 201.736ZM1575.63 181.82C1577.38 181.819 1579.43 184.856 1579.43 189.244C1579.43 193.633 1577.39 196.672 1575.64 196.673C1573.89 196.674 1571.85 193.637 1571.85 189.249C1571.84 184.86 1573.88 181.821 1575.63 181.82Z" fill="#969A7E"/>
<path d="M1573.29 149.416C1580.87 149.412 1589.62 147.381 1598.95 140.962C1600.12 140.287 1600.41 138.599 1599.82 137.586C1599.24 136.236 1597.78 135.9 1596.91 136.575C1571.54 154.143 1551.42 137.613 1550.54 136.601C1549.67 135.927 1548.21 135.927 1547.62 137.278C1547.04 138.291 1547.04 139.979 1548.21 140.653C1547.92 140.991 1558.42 149.424 1573.29 149.416Z" fill="#969A7E"/>
<path d="M1575.62 149.414C1580.87 149.411 1585.24 144.345 1585.24 138.269C1585.23 132.193 1580.86 127.132 1575.61 127.135C1570.36 127.138 1565.99 132.204 1565.99 138.28C1565.99 144.356 1570.37 149.417 1575.62 149.414ZM1575.61 132.536C1578.53 132.534 1580.86 135.233 1580.86 138.609C1580.86 141.985 1578.53 144.686 1575.62 144.688C1572.7 144.69 1570.37 141.991 1570.36 138.615C1570.36 134.902 1572.69 132.538 1575.61 132.536Z" fill="#969A7E"/>
<path d="M1619.09 183.484L1644.46 183.469C1658.17 183.462 1666.03 173.668 1666.03 156.79L1665.99 83.8768C1665.99 82.5265 1665.12 81.1768 1663.66 81.1776C1662.2 81.1784 1661.33 82.1916 1661.33 83.8794L1661.36 156.793C1661.37 166.582 1658.46 178.398 1644.17 178.406L1618.8 178.42C1617.63 178.421 1616.46 179.434 1616.46 181.122C1616.47 182.81 1617.92 183.484 1619.09 183.484Z" fill="#969A7E"/>
</g>
<defs>
<clipPath id="clip0">
<rect width="1952.89" height="730.483" fill="white" transform="matrix(-1 0.000562835 0.000478854 1 1952.89 0)"/>
</clipPath>
</defs>
</svg>
