<svg width="21" height="21" viewBox="0 0 21 21" fill="none" xmlns="http://www.w3.org/2000/svg">
<g clip-path="url(#clip0_858:362)">
<path fill-rule="evenodd" clip-rule="evenodd" d="M20.0379 6.12539C20.0379 3.27638 17.7244 0.962888 14.8754 0.962888L6.1254 0.96289C3.27639 0.96289 0.962891 3.27639 0.962892 6.12539L0.962893 14.8754C0.962894 17.7244 3.2764 20.0379 6.1254 20.0379L14.8754 20.0379C17.7244 20.0379 20.0379 17.7244 20.0379 14.8754L20.0379 6.12539ZM18.4629 6.12539L18.4629 14.8754C18.4629 16.8555 16.8555 18.4629 14.8754 18.4629L6.1254 18.4629C4.14527 18.4629 2.5379 16.8555 2.5379 14.8754L2.5379 6.12539C2.5379 4.14526 4.14527 2.53788 6.1254 2.53788L14.8754 2.53788C16.8555 2.53788 18.4629 4.14526 18.4629 6.12539ZM14.7792 9.83365C14.5035 7.97077 13.03 6.49726 11.1672 6.22164C10.9589 6.19014 10.7489 6.17527 10.538 6.17527C8.18602 6.17527 6.25052 8.11077 6.25052 10.4628C6.25052 12.8148 8.18603 14.7503 10.538 14.7503C12.89 14.7503 14.8255 12.8148 14.8255 10.4628C14.8255 10.2519 14.8107 10.0419 14.7792 9.83365ZM13.2217 10.0646C13.2409 10.1968 13.2505 10.3298 13.2505 10.4628C13.2505 11.9503 12.0264 13.1753 10.538 13.1753C9.05053 13.1753 7.82553 11.9503 7.82553 10.4628C7.82553 8.97439 9.05053 7.75026 10.538 7.75026C10.671 7.75026 10.804 7.75989 10.9362 7.77914C12.1148 7.95414 13.0467 8.88602 13.2217 10.0646ZM15.3129 4.90039C15.7478 4.90039 16.1004 5.25301 16.1004 5.68789C16.1004 6.12276 15.7478 6.47538 15.3129 6.47538C14.878 6.47538 14.5254 6.12276 14.5254 5.68789C14.5254 5.25301 14.878 4.90039 15.3129 4.90039Z" fill="#E2E7E3"/>
</g>
<defs>
<clipPath id="clip0_858:362">
<rect width="21" height="21" fill="white"/>
</clipPath>
</defs>
</svg>
