<svg width="791" height="649" viewBox="0 0 791 649" fill="none" xmlns="http://www.w3.org/2000/svg">
<g clip-path="url(#clip0)">
<path d="M482.683 468.115L783.415 364.018C783.415 364.018 636.524 243.536 477.313 394.862L652.635 173.495C652.635 173.495 556.287 162.25 481.42 234.861C486.79 80.3218 395.18 7.06836 395.18 7.06836C395.18 7.06836 303.571 80.3218 308.941 234.861C234.39 162.571 138.042 173.816 138.042 173.816L312.732 394.219C153.837 243.857 7.26172 364.018 7.26172 364.018L307.678 468.115L282.406 499.923L395.18 641.61L507.955 499.923L482.683 468.115Z" fill="#99A392"/>
<path d="M451.1 428.275L507.961 499.922L395.503 641.289H395.187L282.729 499.922L339.59 428.275L395.187 498.316L451.1 428.275Z" fill="#D35C41"/>
<path d="M788.158 358.234C786.895 357.27 664.643 259.599 523.123 349.559L658.641 178.635C660.221 176.386 660.853 173.494 659.589 170.924C658.641 168.354 656.114 166.426 653.587 166.426C649.796 166.104 563.241 156.787 489.322 218.474C488.058 73.5738 404.03 4.81833 400.24 1.60546C399.924 1.28417 399.924 1.28417 399.608 1.28417C399.292 1.28417 399.292 0.962887 398.976 0.962887H398.66C398.344 0.962887 398.028 0.6416 397.712 0.6416C397.397 0.6416 397.081 0.320312 396.765 0.320312C396.449 0.320312 396.133 0.320312 395.817 0.320312C395.501 0.320312 395.185 0.320312 394.869 0.320312C394.554 0.320312 394.238 0.320312 393.922 0.6416C393.606 0.6416 393.29 0.962887 392.974 0.962887H392.658C392.342 0.962887 392.342 1.28417 392.026 1.28417C391.71 1.28417 391.395 1.60546 391.395 1.60546C386.972 4.49705 302.944 73.5738 301.681 218.474C227.761 156.787 141.206 166.104 137.415 166.426C134.572 166.747 132.361 168.675 131.413 170.924C130.466 173.494 130.782 176.386 132.361 178.635L267.564 349.238C126.043 259.92 4.10788 357.27 2.8443 358.234C0.633037 359.841 -0.314646 362.732 0.317143 365.624C0.948932 368.194 2.8443 370.443 5.37146 371.407L295.679 471.97L277.041 495.424C274.829 498.315 274.829 502.171 277.041 505.062L389.815 646.75C391.079 648.678 393.606 649.642 395.817 649.642C398.028 649.642 400.24 648.678 401.503 646.75L514.278 505.062C516.489 502.171 516.489 498.315 514.278 495.424L495.64 471.97L786.263 371.407C788.79 370.443 790.685 368.194 791.317 365.624C791.317 362.732 790.369 359.841 788.158 358.234ZM445.097 423.455L403.083 476.468C406.558 371.407 434.04 292.37 485.531 241.928C486.163 241.607 486.795 240.964 487.111 240.322C541.445 187.952 608.414 181.205 637.161 181.205L445.097 423.455ZM474.159 231.968C440.674 265.382 416.982 310.041 402.767 364.981V25.3807C426.775 51.0837 477.318 119.197 474.159 231.968ZM387.92 25.3807V109.558C387.92 183.775 387.92 284.659 387.92 365.303C374.02 310.041 350.012 265.704 316.528 232.29C313.685 119.197 363.912 51.0837 387.92 25.3807ZM304.208 240.643C356.33 291.085 384.445 370.443 387.604 476.468L345.59 423.455L153.21 180.884C182.272 180.884 249.242 187.631 304.208 240.643ZM23.6933 361.768C60.653 337.672 178.798 278.234 307.367 399.68L330.111 428.275L305.471 459.44L23.6933 361.768ZM395.501 629.401L292.52 499.922L339.904 440.162L389.815 502.813C391.079 504.741 393.29 505.705 395.501 505.705C397.712 505.705 399.924 504.741 401.187 502.813L451.099 439.841L477.002 472.291L498.483 499.601L395.501 629.401ZM485.215 459.118L460.576 427.953L482.688 400.002C611.573 277.591 730.349 337.351 767.309 361.447L485.215 459.118Z" fill="#394238"/>
</g>
<defs>
<clipPath id="clip0">
<rect width="791" height="649" fill="white"/>
</clipPath>
</defs>
</svg>
